<?xml version="1.0" encoding="UTF-8" standalone="no"?>
<!-- Created with Inkscape (http://www.inkscape.org/) -->

<svg
   xmlns:dc="http://purl.org/dc/elements/1.1/"
   xmlns:cc="http://creativecommons.org/ns#"
   xmlns:rdf="http://www.w3.org/1999/02/22-rdf-syntax-ns#"
   xmlns:svg="http://www.w3.org/2000/svg"
   xmlns="http://www.w3.org/2000/svg"
   xmlns:sodipodi="http://sodipodi.sourceforge.net/DTD/sodipodi-0.dtd"
   xmlns:inkscape="http://www.inkscape.org/namespaces/inkscape"
   width="420mm"
   height="297mm"
   viewBox="0 0 420 297"
   version="1.1"
   id="svg3823"
   inkscape:version="0.92.3 (2405546, 2018-03-11)"
   sodipodi:docname="industrial-storage-systems.svg">
  <sodipodi:namedview
     id="base"
     pagecolor="#ffffff"
     bordercolor="#666666"
     borderopacity="1.0"
     inkscape:pageopacity="0.0"
     inkscape:pageshadow="2"
     inkscape:zoom="0.98994949"
     inkscape:cx="833.60227"
     inkscape:cy="214.14528"
     inkscape:document-units="mm"
     inkscape:current-layer="layer1"
     showgrid="false"
     inkscape:window-width="2560"
     inkscape:window-height="1409"
     inkscape:window-x="4240"
     inkscape:window-y="0"
     inkscape:window-maximized="1"
     inkscape:snap-grids="false"
     showguides="false"
     inkscape:guide-bbox="true"
     inkscape:pagecheckerboard="true" />
  <defs
     id="defs3817">
    <inkscape:perspective
       sodipodi:type="inkscape:persp3d"
       inkscape:vp_x="18.142857 : 538.58126 : 1"
       inkscape:vp_y="0 : 3779.5275 : 0"
       inkscape:vp_z="811.84367 : 538.58126 : 1"
       inkscape:persp3d-origin="414.99326 : 351.49465 : 1"
       id="perspective4719" />
    <inkscape:perspective
       sodipodi:type="inkscape:persp3d"
       inkscape:vp_x="0 : 148.5 : 1"
       inkscape:vp_y="0 : 1000 : 0"
       inkscape:vp_z="210 : 148.5 : 1"
       inkscape:persp3d-origin="105 : 99 : 1"
       id="perspective4518" />
  </defs>
  <metadata
     id="metadata3820">
    <rdf:RDF>
      <cc:Work
         rdf:about="">
        <dc:format>image/svg+xml</dc:format>
        <dc:type
           rdf:resource="http://purl.org/dc/dcmitype/StillImage" />
        <dc:title></dc:title>
      </cc:Work>
    </rdf:RDF>
  </metadata>
  <g
     inkscape:label="Layer 1"
     inkscape:groupmode="layer"
     id="layer1">
    <g
       id="g4562"
       style="opacity:1;vector-effect:none;fill:#000000;fill-opacity:1;stroke:#ffffff;stroke-width:7.55905533;stroke-linecap:round;stroke-linejoin:bevel;stroke-miterlimit:4;stroke-dasharray:none;stroke-dashoffset:0;stroke-opacity:1"
       transform="matrix(1.5360308,0,0,1.7941722,-120.7366,-141.0358)" />
    <g
       id="g5106"
       transform="translate(-131.22934,-59.066566)">
      <text
         id="text4488"
         y="220.87875"
         x="42.002224"
         style="font-style:normal;font-variant:normal;font-weight:normal;font-stretch:normal;font-size:53.06085968px;line-height:1.25;font-family:Bevan;-inkscape-font-specification:'Bevan, Normal';font-variant-ligatures:normal;font-variant-caps:normal;font-variant-numeric:normal;font-feature-settings:normal;text-align:start;letter-spacing:0px;word-spacing:0px;writing-mode:lr-tb;text-anchor:start;fill:#000000;fill-opacity:1;stroke:#ffffff;stroke-width:1.45857966;stroke-miterlimit:4;stroke-dasharray:none"
         xml:space="preserve"><tspan
           style="font-style:normal;font-variant:normal;font-weight:normal;font-stretch:normal;font-size:53.06085968px;font-family:Bevan;-inkscape-font-specification:'Bevan, Normal';font-variant-ligatures:normal;font-variant-caps:normal;font-variant-numeric:normal;font-feature-settings:normal;text-align:start;writing-mode:lr-tb;text-anchor:start;stroke:#ffffff;stroke-width:1.45857966;stroke-miterlimit:4;stroke-dasharray:none"
           y="220.87875"
           x="42.002224"
           id="tspan4486"
           sodipodi:role="line">I</tspan></text>
      <text
         id="text4488-0"
         y="220.87875"
         x="54.136845"
         style="font-style:normal;font-variant:normal;font-weight:normal;font-stretch:normal;font-size:53.06085968px;line-height:1.25;font-family:Bevan;-inkscape-font-specification:'Bevan, Normal';font-variant-ligatures:normal;font-variant-caps:normal;font-variant-numeric:normal;font-feature-settings:normal;text-align:start;letter-spacing:0px;word-spacing:0px;writing-mode:lr-tb;text-anchor:start;fill:#000000;fill-opacity:1;stroke:#ffffff;stroke-width:1.45857966;stroke-miterlimit:4;stroke-dasharray:none"
         xml:space="preserve"><tspan
           style="font-style:normal;font-variant:normal;font-weight:normal;font-stretch:normal;font-size:53.06085968px;font-family:Bevan;-inkscape-font-specification:'Bevan, Normal';font-variant-ligatures:normal;font-variant-caps:normal;font-variant-numeric:normal;font-feature-settings:normal;text-align:start;writing-mode:lr-tb;text-anchor:start;stroke:#ffffff;stroke-width:1.45857966;stroke-miterlimit:4;stroke-dasharray:none"
           y="220.87875"
           x="54.136845"
           id="tspan4486-2"
           sodipodi:role="line">S</tspan></text>
      <text
         id="text4488-7"
         y="220.87875"
         x="70.410217"
         style="font-style:normal;font-variant:normal;font-weight:normal;font-stretch:normal;font-size:53.06085968px;line-height:1.25;font-family:Bevan;-inkscape-font-specification:'Bevan, Normal';font-variant-ligatures:normal;font-variant-caps:normal;font-variant-numeric:normal;font-feature-settings:normal;text-align:start;letter-spacing:0px;word-spacing:0px;writing-mode:lr-tb;text-anchor:start;fill:#000000;fill-opacity:1;stroke:#ffffff;stroke-width:1.45857966;stroke-miterlimit:4;stroke-dasharray:none"
         xml:space="preserve"><tspan
           style="font-style:normal;font-variant:normal;font-weight:normal;font-stretch:normal;font-size:53.06085968px;font-family:Bevan;-inkscape-font-specification:'Bevan, Normal';font-variant-ligatures:normal;font-variant-caps:normal;font-variant-numeric:normal;font-feature-settings:normal;text-align:start;writing-mode:lr-tb;text-anchor:start;stroke:#ffffff;stroke-width:1.45857966;stroke-miterlimit:4;stroke-dasharray:none"
           y="220.87875"
           x="70.410217"
           id="tspan4486-9"
           sodipodi:role="line">S</tspan></text>
    </g>
    <g
       sodipodi:type="inkscape:box3d"
       id="g4548"
       style="opacity:1;vector-effect:none;fill:#000000;fill-opacity:1;stroke:#ffffff;stroke-width:7.55905533;stroke-linecap:round;stroke-linejoin:bevel;stroke-miterlimit:4;stroke-dasharray:none;stroke-dashoffset:0;stroke-opacity:1"
       inkscape:perspectiveID="#perspective4719"
       inkscape:corner0="-0.28403278 : 0.017057737 : 0 : 1"
       inkscape:corner7="-0.42840477 : -0.0036226308 : 0.25 : 1">
      <path
         sodipodi:type="inkscape:box3dside"
         id="path4550"
         style="fill:#353564;fill-rule:evenodd;stroke:none;stroke-linejoin:round"
         inkscape:box3dsidetype="6"
         d="M 572.42859,52.678589 V 161.84842 L 634.39112,89.270991 V 8.3551846 Z"
         points="572.42859,161.84842 634.39112,89.270991 634.39112,8.3551846 572.42859,52.678589 " />
      <path
         sodipodi:type="inkscape:box3dside"
         id="path4558"
         style="fill:#afafde;fill-rule:evenodd;stroke:none;stroke-linejoin:round"
         inkscape:box3dsidetype="13"
         d="m 572.42859,161.84842 140,70.83016 30.25063,-106.88347 -108.2881,-36.524119 z"
         points="712.42859,232.67858 742.67922,125.79511 634.39112,89.270991 572.42859,161.84842 " />
      <path
         sodipodi:type="inkscape:box3dside"
         id="path4560"
         style="fill:#e9e9ff;fill-rule:evenodd;stroke:none;stroke-linejoin:round"
         inkscape:box3dsidetype="11"
         d="M 634.39112,8.3551846 742.67922,30.660649 V 125.79511 L 634.39112,89.270991 Z"
         points="742.67922,30.660649 742.67922,125.79511 634.39112,89.270991 634.39112,8.3551846 " />
      <path
         sodipodi:type="inkscape:box3dside"
         id="path4552"
         style="fill:#4d4d9f;fill-rule:evenodd;stroke:none;stroke-linejoin:round"
         inkscape:box3dsidetype="5"
         d="m 572.42859,52.678589 140,43.256348 30.25063,-65.274288 -108.2881,-22.3054644 z"
         points="712.42859,95.934937 742.67922,30.660649 634.39112,8.3551846 572.42859,52.678589 " />
      <path
         sodipodi:type="inkscape:box3dside"
         id="path4556"
         style="fill:#d7d7ff;fill-rule:evenodd;stroke:none;stroke-linejoin:round"
         inkscape:box3dsidetype="14"
         d="M 712.42859,95.934937 V 232.67858 L 742.67922,125.79511 V 30.660649 Z"
         points="712.42859,232.67858 742.67922,125.79511 742.67922,30.660649 712.42859,95.934937 " />
      <path
         sodipodi:type="inkscape:box3dside"
         id="path4554"
         style="fill:#8686bf;fill-rule:evenodd;stroke:none;stroke-linejoin:round"
         inkscape:box3dsidetype="3"
         d="m 572.42859,52.678589 140,43.256348 V 232.67858 l -140,-70.83016 z"
         points="712.42859,95.934937 712.42859,232.67858 572.42859,161.84842 572.42859,52.678589 " />
    </g>
    <g
       id="g5289"
       transform="matrix(1.5899179,0,0,1.5899179,-28.784255,-122.07124)">
      <path
         inkscape:connector-curvature="0"
         id="path4652"
         style="opacity:1;vector-effect:none;fill:#353564;fill-opacity:1;fill-rule:evenodd;stroke:none;stroke-width:7.55905533;stroke-linecap:round;stroke-linejoin:round;stroke-miterlimit:4;stroke-dasharray:none;stroke-dashoffset:0;stroke-opacity:1"
         d="m 110.36905,135.18545 v 32.92467 l 20.73306,-4.08084 v -26.07309 z"
         transform="matrix(1.5360308,0,0,1.7941722,-120.7366,-141.0358)" />
      <path
         inkscape:connector-curvature="0"
         id="path4654"
         style="opacity:1;vector-effect:none;fill:#afafde;fill-opacity:1;fill-rule:evenodd;stroke:none;stroke-width:7.55905533;stroke-linecap:round;stroke-linejoin:round;stroke-miterlimit:4;stroke-dasharray:none;stroke-dashoffset:0;stroke-opacity:1"
         d="m 110.36905,168.11012 30.99404,5.50695 17.28423,-6.32501 -27.54521,-3.26278 z"
         transform="matrix(1.5360308,0,0,1.7941722,-120.7366,-141.0358)" />
      <path
         inkscape:connector-curvature="0"
         id="path4656"
         style="opacity:1;vector-effect:none;fill:#e9e9ff;fill-opacity:1;fill-rule:evenodd;stroke:none;stroke-width:7.55905533;stroke-linecap:round;stroke-linejoin:round;stroke-miterlimit:4;stroke-dasharray:none;stroke-dashoffset:0;stroke-opacity:1"
         d="m 131.10211,137.95619 27.54521,-2.21531 v 31.55118 l -27.54521,-3.26278 z"
         transform="matrix(1.5360308,0,0,1.7941722,-120.7366,-141.0358)" />
      <path
         inkscape:connector-curvature="0"
         id="path4658"
         style="opacity:1;vector-effect:none;fill:#4d4d9f;fill-opacity:1;fill-rule:evenodd;stroke:none;stroke-width:7.55905533;stroke-linecap:round;stroke-linejoin:round;stroke-miterlimit:4;stroke-dasharray:none;stroke-dashoffset:0;stroke-opacity:1"
         d="m 110.36905,135.18545 30.99404,-3.73902 17.28423,4.29445 -27.54521,2.21531 z"
         transform="matrix(1.5360308,0,0,1.7941722,-120.7366,-141.0358)" />
      <path
         inkscape:connector-curvature="0"
         id="path4660"
         style="opacity:1;vector-effect:none;fill:#ffcc00;fill-opacity:1;fill-rule:evenodd;stroke:none;stroke-width:7.55905533;stroke-linecap:round;stroke-linejoin:round;stroke-miterlimit:4;stroke-dasharray:none;stroke-dashoffset:0;stroke-opacity:1"
         d="m 141.36309,131.44643 v 42.17064 l 17.28423,-6.32501 v -31.55118 z"
         transform="matrix(1.5360308,0,0,1.7941722,-120.7366,-141.0358)" />
      <path
         inkscape:connector-curvature="0"
         id="path4662"
         style="opacity:1;vector-effect:none;fill:#806600;fill-opacity:1;fill-rule:evenodd;stroke:none;stroke-width:7.55905533;stroke-linecap:round;stroke-linejoin:round;stroke-miterlimit:4;stroke-dasharray:none;stroke-dashoffset:0;stroke-opacity:1"
         d="m 110.36905,135.18545 30.99404,-3.73902 v 42.17064 l -30.99404,-5.50695 z"
         transform="matrix(1.5360308,0,0,1.7941722,-120.7366,-141.0358)" />
      <g
         transform="translate(112.07877,-179.13618)"
         id="g5106-4">
        <g
           aria-label="I"
           style="font-style:normal;font-variant:normal;font-weight:normal;font-stretch:normal;font-size:53.06085968px;line-height:1.25;font-family:Bevan;-inkscape-font-specification:'Bevan, Normal';font-variant-ligatures:normal;font-variant-caps:normal;font-variant-numeric:normal;font-feature-settings:normal;text-align:start;letter-spacing:0px;word-spacing:0px;writing-mode:lr-tb;text-anchor:start;fill:#000000;fill-opacity:1;stroke:#ffffff;stroke-width:1.45857966;stroke-miterlimit:4;stroke-dasharray:none"
           id="text4488-5">
          <path
             inkscape:connector-curvature="0"
             d="m -60.896379,335.48062 c 0,0 0,-11.12105 0,-11.12105 0,0 2.341155,0.29038 2.341155,0.29038 0,0 0,-28.42043 0,-28.42043 0,0 -2.341155,0.13342 -2.341155,0.13342 0,0 0,-11.12105 0,-11.12105 0,0 13.014442,-1.67748 13.014442,-1.67748 0,0 0,12.05687 0,12.05687 0,0 -2.667583,0.15202 -2.667583,0.15202 0,0 0,29.86962 0,29.86962 0,0 2.667583,0.33087 2.667583,0.33087 0,0 0,12.05687 0,12.05687 0,0 -13.014442,-2.55004 -13.014442,-2.55004"
             style="font-style:normal;font-variant:normal;font-weight:normal;font-stretch:normal;font-size:53.06085968px;font-family:Bevan;-inkscape-font-specification:'Bevan, Normal';font-variant-ligatures:normal;font-variant-caps:normal;font-variant-numeric:normal;font-feature-settings:normal;text-align:start;writing-mode:lr-tb;text-anchor:start;stroke:#ffffff;stroke-width:1.45857966;stroke-miterlimit:4;stroke-dasharray:none"
             id="path5143" />
        </g>
        <g
           aria-label="S"
           style="font-style:normal;font-variant:normal;font-weight:normal;font-stretch:normal;font-size:53.06085968px;line-height:1.25;font-family:Bevan;-inkscape-font-specification:'Bevan, Normal';font-variant-ligatures:normal;font-variant-caps:normal;font-variant-numeric:normal;font-feature-settings:normal;text-align:start;letter-spacing:0px;word-spacing:0px;writing-mode:lr-tb;text-anchor:start;fill:#000000;fill-opacity:1;stroke:#ffffff;stroke-width:1.45857966;stroke-miterlimit:4;stroke-dasharray:none"
           id="text4488-0-2">
          <path
             inkscape:connector-curvature="0"
             d="m -42.03063,340.19279 c -1.476155,-0.29788 -2.639119,-0.86595 -3.501076,-1.70163 -0.829719,-0.7756 -1.721436,-2.00251 -2.673069,-3.6721 0,0 -0.586459,3.03343 -0.586459,3.03343 0,0 -5.260207,-1.03068 -5.260207,-1.03068 0,0 0,-16.0695 0,-16.0695 0,0 5.225837,0.50399 5.225837,0.50399 0.344336,1.94237 0.875088,3.3543 1.595808,4.2354 0.750501,0.89167 1.67427,1.41026 2.776903,1.55118 0.678199,0.0867 1.263806,-0.10272 1.754871,-0.57066 0.493871,-0.51893 0.741866,-1.23915 0.741866,-2.15843 0,-1.16121 -0.260377,-2.05777 -0.778793,-2.68685 -0.490855,-0.62308 -1.185525,-1.21308 -2.079066,-1.76828 -2.228781,-1.41276 -4.023043,-2.85509 -5.408652,-4.33578 -1.340607,-1.45508 -2.408478,-3.46554 -3.213838,-6.02985 -0.797437,-2.53909 -1.19322,-5.86246 -1.19322,-9.98879 0,-3.18445 0.320756,-6.01091 0.966121,-8.49419 0.672326,-2.50547 1.636239,-4.51855 2.902073,-6.04107 1.285584,-1.54628 2.822591,-2.44835 4.624514,-2.6919 2.252965,-0.30452 4.081577,0.89899 5.456753,3.64897 0,0 0.950187,-3.48588 0.950187,-3.48588 0,0 5.51785,-0.71352 5.51785,-0.71352 0,0 0,17.66442 0,17.66442 0,0 -5.899161,0.1882 -5.899161,0.1882 -0.531065,-2.12805 -1.121554,-3.58382 -1.770231,-4.37254 -0.619193,-0.78439 -1.466463,-1.1397 -2.535077,-1.07076 -0.816707,0.0527 -1.447872,0.37717 -1.897534,0.97146 -0.423803,0.58982 -0.63491,1.37705 -0.63491,2.36388 0,1.08082 0.305101,1.91622 0.918629,2.50942 0.64186,0.54945 1.553496,1.07289 2.743546,1.57235 2.15425,0.92694 4.016655,2.12645 5.566729,3.60022 1.604105,1.45012 2.900301,3.57608 3.8746,6.38065 1.012368,2.78544 1.522795,6.38577 1.522795,10.77766 0,3.72801 -0.427848,7.04195 -1.277577,9.9216 -0.814832,2.85748 -1.983458,4.99691 -3.492129,6.41934 -1.457772,1.40388 -3.107576,1.90962 -4.938083,1.54024 0,0 0,0 0,0"
             style="font-style:normal;font-variant:normal;font-weight:normal;font-stretch:normal;font-size:53.06085968px;font-family:Bevan;-inkscape-font-specification:'Bevan, Normal';font-variant-ligatures:normal;font-variant-caps:normal;font-variant-numeric:normal;font-feature-settings:normal;text-align:start;writing-mode:lr-tb;text-anchor:start;stroke:#ffffff;stroke-width:1.45857966;stroke-miterlimit:4;stroke-dasharray:none"
             id="path5146" />
        </g>
        <g
           aria-label="S"
           style="font-style:normal;font-variant:normal;font-weight:normal;font-stretch:normal;font-size:53.06085968px;line-height:1.25;font-family:Bevan;-inkscape-font-specification:'Bevan, Normal';font-variant-ligatures:normal;font-variant-caps:normal;font-variant-numeric:normal;font-feature-settings:normal;text-align:start;letter-spacing:0px;word-spacing:0px;writing-mode:lr-tb;text-anchor:start;fill:#000000;fill-opacity:1;stroke:#ffffff;stroke-width:1.45857966;stroke-miterlimit:4;stroke-dasharray:none"
           id="text4488-7-3">
          <path
             inkscape:connector-curvature="0"
             d="m -29.811552,342.6585 c -1.690354,-0.3411 -3.020646,-0.96603 -4.005813,-1.87204 -0.947669,-0.84073 -1.965441,-2.16381 -3.050788,-3.95939 0,0 -0.668448,3.23064 -0.668448,3.23064 0,0 -5.981432,-1.17199 -5.981432,-1.17199 0,0 0,-17.11756 0,-17.11756 0,0 5.942267,0.57308 5.942267,0.57308 0.392425,2.07611 0.997515,3.58797 1.819597,4.5352 0.856559,0.95932 1.91159,1.52213 3.171934,1.68319 0.775763,0.0991 1.445956,-0.0979 2.008197,-0.59402 0.565679,-0.55087 0.849818,-1.31959 0.849818,-2.30364 0,-1.24301 -0.298323,-2.20466 -0.892105,-2.88169 -0.561984,-0.67014 -1.356936,-1.30597 -2.378808,-1.90549 -2.545658,-1.52335 -4.591684,-3.07328 -6.169683,-4.66006 -1.525067,-1.55752 -2.73869,-3.70442 -3.653278,-6.43904 -0.905005,-2.70597 -1.35396,-6.24557 -1.35396,-10.63999 0,-3.39135 0.363838,-6.40306 1.096167,-9.05196 0.76333,-2.67412 1.858441,-4.82717 3.297862,-6.46134 1.463389,-1.66139 3.214974,-2.63911 5.271237,-2.91705 2.575196,-0.34807 4.668808,0.92176 6.245321,3.85385 0,0 1.09033,-3.74279 1.09033,-3.74279 0,0 6.348356,-0.82092 6.348356,-0.82092 0,0 0,18.96847 0,18.96847 0,0 -6.786008,0.2165 -6.786008,0.2165 -0.609307,-2.27789 -1.286484,-3.8347 -2.030019,-4.67641 -0.709373,-0.83679 -1.679464,-1.21296 -2.902034,-1.13409 -0.933656,0.0602 -1.65478,0.41003 -2.168306,1.04714 -0.483823,0.632 -0.724765,1.47384 -0.724765,2.52806 0,1.15462 0.348235,2.0463 1.048758,2.6787 0.733246,0.5859 1.775336,1.14381 3.136838,1.67604 2.467962,0.98919 4.60506,2.27242 6.386229,3.85172 1.845618,1.55595 3.338728,3.83909 4.462077,6.85266 1.168195,2.99557 1.757552,6.86671 1.757552,11.58646 0,4.0063 -0.494025,7.5631 -1.474675,10.64712 -0.939738,3.05852 -2.286413,5.33934 -4.023046,6.8439 -1.676024,1.48358 -3.570435,2.00029 -5.669372,1.57674 0,0 0,0 0,0"
             style="font-style:normal;font-variant:normal;font-weight:normal;font-stretch:normal;font-size:53.06085968px;font-family:Bevan;-inkscape-font-specification:'Bevan, Normal';font-variant-ligatures:normal;font-variant-caps:normal;font-variant-numeric:normal;font-feature-settings:normal;text-align:start;writing-mode:lr-tb;text-anchor:start;stroke:#ffffff;stroke-width:1.45857966;stroke-miterlimit:4;stroke-dasharray:none"
             id="path5149" />
        </g>
      </g>
    </g>
    <g
       id="g5675"
       inkscape:export-xdpi="600"
       inkscape:export-ydpi="600">
      <rect
         ry="6.9490008"
         rx="7.1899285"
         y="102.40722"
         x="212.98228"
         height="43.832199"
         width="191.01605"
         id="rect5578"
         style="opacity:1;vector-effect:none;fill:#ffffff;fill-opacity:1;stroke:#000000;stroke-width:1.27419996;stroke-linecap:round;stroke-linejoin:bevel;stroke-miterlimit:4;stroke-dasharray:none;stroke-dashoffset:0;stroke-opacity:1" />
      <text
         id="text5574"
         y="131.74286"
         x="263.61615"
         style="font-style:normal;font-variant:normal;font-weight:normal;font-stretch:normal;font-size:6.43025827px;line-height:1.25;font-family:'Keania One';-inkscape-font-specification:'Keania One, Normal';font-variant-ligatures:normal;font-variant-caps:normal;font-variant-numeric:normal;font-feature-settings:normal;text-align:start;letter-spacing:0px;word-spacing:0px;writing-mode:lr-tb;text-anchor:start;fill:#000000;fill-opacity:1;stroke:none;stroke-width:0.60283667"
         xml:space="preserve"><tspan
           style="font-style:normal;font-variant:normal;font-weight:normal;font-stretch:normal;font-size:38.58154678px;font-family:'Black Ops One';-inkscape-font-specification:'Black Ops One, Normal';font-variant-ligatures:normal;font-variant-caps:normal;font-variant-numeric:normal;font-feature-settings:normal;text-align:start;writing-mode:lr-tb;text-anchor:start;stroke-width:0.60283667"
           y="131.74286"
           x="263.61615"
           id="tspan5572"
           sodipodi:role="line">6E-05</tspan></text>
      <g
         transform="matrix(0.46209785,0,0,0.46209785,196.05547,62.884368)"
         id="g5289-4">
        <path
           transform="matrix(1.5360308,0,0,1.7941722,-120.7366,-141.0358)"
           d="m 110.36905,135.18545 v 32.92467 l 20.73306,-4.08084 v -26.07309 z"
           style="opacity:1;vector-effect:none;fill:#353564;fill-opacity:1;fill-rule:evenodd;stroke:none;stroke-width:7.55905533;stroke-linecap:round;stroke-linejoin:round;stroke-miterlimit:4;stroke-dasharray:none;stroke-dashoffset:0;stroke-opacity:1"
           id="path4652-8"
           inkscape:connector-curvature="0" />
        <path
           transform="matrix(1.5360308,0,0,1.7941722,-120.7366,-141.0358)"
           d="m 110.36905,168.11012 30.99404,5.50695 17.28423,-6.32501 -27.54521,-3.26278 z"
           style="opacity:1;vector-effect:none;fill:#afafde;fill-opacity:1;fill-rule:evenodd;stroke:none;stroke-width:7.55905533;stroke-linecap:round;stroke-linejoin:round;stroke-miterlimit:4;stroke-dasharray:none;stroke-dashoffset:0;stroke-opacity:1"
           id="path4654-0"
           inkscape:connector-curvature="0" />
        <path
           transform="matrix(1.5360308,0,0,1.7941722,-120.7366,-141.0358)"
           d="m 131.10211,137.95619 27.54521,-2.21531 v 31.55118 l -27.54521,-3.26278 z"
           style="opacity:1;vector-effect:none;fill:#e9e9ff;fill-opacity:1;fill-rule:evenodd;stroke:none;stroke-width:7.55905533;stroke-linecap:round;stroke-linejoin:round;stroke-miterlimit:4;stroke-dasharray:none;stroke-dashoffset:0;stroke-opacity:1"
           id="path4656-62"
           inkscape:connector-curvature="0" />
        <path
           transform="matrix(1.5360308,0,0,1.7941722,-120.7366,-141.0358)"
           d="m 110.36905,135.18545 30.99404,-3.73902 17.28423,4.29445 -27.54521,2.21531 z"
           style="opacity:1;vector-effect:none;fill:#4d4d9f;fill-opacity:1;fill-rule:evenodd;stroke:none;stroke-width:7.55905533;stroke-linecap:round;stroke-linejoin:round;stroke-miterlimit:4;stroke-dasharray:none;stroke-dashoffset:0;stroke-opacity:1"
           id="path4658-6"
           inkscape:connector-curvature="0" />
        <path
           transform="matrix(1.5360308,0,0,1.7941722,-120.7366,-141.0358)"
           d="m 141.36309,131.44643 v 42.17064 l 17.28423,-6.32501 v -31.55118 z"
           style="opacity:1;vector-effect:none;fill:#ffcc00;fill-opacity:1;fill-rule:evenodd;stroke:none;stroke-width:7.55905533;stroke-linecap:round;stroke-linejoin:round;stroke-miterlimit:4;stroke-dasharray:none;stroke-dashoffset:0;stroke-opacity:1"
           id="path4660-5"
           inkscape:connector-curvature="0" />
        <path
           transform="matrix(1.5360308,0,0,1.7941722,-120.7366,-141.0358)"
           d="m 110.36905,135.18545 30.99404,-3.73902 v 42.17064 l -30.99404,-5.50695 z"
           style="opacity:1;vector-effect:none;fill:#806600;fill-opacity:1;fill-rule:evenodd;stroke:none;stroke-width:7.55905533;stroke-linecap:round;stroke-linejoin:round;stroke-miterlimit:4;stroke-dasharray:none;stroke-dashoffset:0;stroke-opacity:1"
           id="path4662-6"
           inkscape:connector-curvature="0" />
        <g
           id="g5106-4-6"
           transform="translate(112.07877,-179.13618)">
          <g
             id="text4488-5-3"
             style="font-style:normal;font-variant:normal;font-weight:normal;font-stretch:normal;font-size:53.06085968px;line-height:1.25;font-family:Bevan;-inkscape-font-specification:'Bevan, Normal';font-variant-ligatures:normal;font-variant-caps:normal;font-variant-numeric:normal;font-feature-settings:normal;text-align:start;letter-spacing:0px;word-spacing:0px;writing-mode:lr-tb;text-anchor:start;fill:#000000;fill-opacity:1;stroke:#ffffff;stroke-width:1.45857966;stroke-miterlimit:4;stroke-dasharray:none"
             aria-label="I">
            <path
               id="path5143-4"
               style="font-style:normal;font-variant:normal;font-weight:normal;font-stretch:normal;font-size:53.06085968px;font-family:Bevan;-inkscape-font-specification:'Bevan, Normal';font-variant-ligatures:normal;font-variant-caps:normal;font-variant-numeric:normal;font-feature-settings:normal;text-align:start;writing-mode:lr-tb;text-anchor:start;stroke:#ffffff;stroke-width:1.45857966;stroke-miterlimit:4;stroke-dasharray:none"
               d="m -60.896379,335.48062 c 0,0 0,-11.12105 0,-11.12105 0,0 2.341155,0.29038 2.341155,0.29038 0,0 0,-28.42043 0,-28.42043 0,0 -2.341155,0.13342 -2.341155,0.13342 0,0 0,-11.12105 0,-11.12105 0,0 13.014442,-1.67748 13.014442,-1.67748 0,0 0,12.05687 0,12.05687 0,0 -2.667583,0.15202 -2.667583,0.15202 0,0 0,29.86962 0,29.86962 0,0 2.667583,0.33087 2.667583,0.33087 0,0 0,12.05687 0,12.05687 0,0 -13.014442,-2.55004 -13.014442,-2.55004"
               inkscape:connector-curvature="0" />
          </g>
          <g
             id="text4488-0-2-1"
             style="font-style:normal;font-variant:normal;font-weight:normal;font-stretch:normal;font-size:53.06085968px;line-height:1.25;font-family:Bevan;-inkscape-font-specification:'Bevan, Normal';font-variant-ligatures:normal;font-variant-caps:normal;font-variant-numeric:normal;font-feature-settings:normal;text-align:start;letter-spacing:0px;word-spacing:0px;writing-mode:lr-tb;text-anchor:start;fill:#000000;fill-opacity:1;stroke:#ffffff;stroke-width:1.45857966;stroke-miterlimit:4;stroke-dasharray:none"
             aria-label="S">
            <path
               id="path5146-7"
               style="font-style:normal;font-variant:normal;font-weight:normal;font-stretch:normal;font-size:53.06085968px;font-family:Bevan;-inkscape-font-specification:'Bevan, Normal';font-variant-ligatures:normal;font-variant-caps:normal;font-variant-numeric:normal;font-feature-settings:normal;text-align:start;writing-mode:lr-tb;text-anchor:start;stroke:#ffffff;stroke-width:1.45857966;stroke-miterlimit:4;stroke-dasharray:none"
               d="m -42.03063,340.19279 c -1.476155,-0.29788 -2.639119,-0.86595 -3.501076,-1.70163 -0.829719,-0.7756 -1.721436,-2.00251 -2.673069,-3.6721 0,0 -0.586459,3.03343 -0.586459,3.03343 0,0 -5.260207,-1.03068 -5.260207,-1.03068 0,0 0,-16.0695 0,-16.0695 0,0 5.225837,0.50399 5.225837,0.50399 0.344336,1.94237 0.875088,3.3543 1.595808,4.2354 0.750501,0.89167 1.67427,1.41026 2.776903,1.55118 0.678199,0.0867 1.263806,-0.10272 1.754871,-0.57066 0.493871,-0.51893 0.741866,-1.23915 0.741866,-2.15843 0,-1.16121 -0.260377,-2.05777 -0.778793,-2.68685 -0.490855,-0.62308 -1.185525,-1.21308 -2.079066,-1.76828 -2.228781,-1.41276 -4.023043,-2.85509 -5.408652,-4.33578 -1.340607,-1.45508 -2.408478,-3.46554 -3.213838,-6.02985 -0.797437,-2.53909 -1.19322,-5.86246 -1.19322,-9.98879 0,-3.18445 0.320756,-6.01091 0.966121,-8.49419 0.672326,-2.50547 1.636239,-4.51855 2.902073,-6.04107 1.285584,-1.54628 2.822591,-2.44835 4.624514,-2.6919 2.252965,-0.30452 4.081577,0.89899 5.456753,3.64897 0,0 0.950187,-3.48588 0.950187,-3.48588 0,0 5.51785,-0.71352 5.51785,-0.71352 0,0 0,17.66442 0,17.66442 0,0 -5.899161,0.1882 -5.899161,0.1882 -0.531065,-2.12805 -1.121554,-3.58382 -1.770231,-4.37254 -0.619193,-0.78439 -1.466463,-1.1397 -2.535077,-1.07076 -0.816707,0.0527 -1.447872,0.37717 -1.897534,0.97146 -0.423803,0.58982 -0.63491,1.37705 -0.63491,2.36388 0,1.08082 0.305101,1.91622 0.918629,2.50942 0.64186,0.54945 1.553496,1.07289 2.743546,1.57235 2.15425,0.92694 4.016655,2.12645 5.566729,3.60022 1.604105,1.45012 2.900301,3.57608 3.8746,6.38065 1.012368,2.78544 1.522795,6.38577 1.522795,10.77766 0,3.72801 -0.427848,7.04195 -1.277577,9.9216 -0.814832,2.85748 -1.983458,4.99691 -3.492129,6.41934 -1.457772,1.40388 -3.107576,1.90962 -4.938083,1.54024 0,0 0,0 0,0"
               inkscape:connector-curvature="0" />
          </g>
          <g
             id="text4488-7-3-1"
             style="font-style:normal;font-variant:normal;font-weight:normal;font-stretch:normal;font-size:53.06085968px;line-height:1.25;font-family:Bevan;-inkscape-font-specification:'Bevan, Normal';font-variant-ligatures:normal;font-variant-caps:normal;font-variant-numeric:normal;font-feature-settings:normal;text-align:start;letter-spacing:0px;word-spacing:0px;writing-mode:lr-tb;text-anchor:start;fill:#000000;fill-opacity:1;stroke:#ffffff;stroke-width:1.45857966;stroke-miterlimit:4;stroke-dasharray:none"
             aria-label="S">
            <path
               id="path5149-3"
               style="font-style:normal;font-variant:normal;font-weight:normal;font-stretch:normal;font-size:53.06085968px;font-family:Bevan;-inkscape-font-specification:'Bevan, Normal';font-variant-ligatures:normal;font-variant-caps:normal;font-variant-numeric:normal;font-feature-settings:normal;text-align:start;writing-mode:lr-tb;text-anchor:start;stroke:#ffffff;stroke-width:1.45857966;stroke-miterlimit:4;stroke-dasharray:none"
               d="m -29.811552,342.6585 c -1.690354,-0.3411 -3.020646,-0.96603 -4.005813,-1.87204 -0.947669,-0.84073 -1.965441,-2.16381 -3.050788,-3.95939 0,0 -0.668448,3.23064 -0.668448,3.23064 0,0 -5.981432,-1.17199 -5.981432,-1.17199 0,0 0,-17.11756 0,-17.11756 0,0 5.942267,0.57308 5.942267,0.57308 0.392425,2.07611 0.997515,3.58797 1.819597,4.5352 0.856559,0.95932 1.91159,1.52213 3.171934,1.68319 0.775763,0.0991 1.445956,-0.0979 2.008197,-0.59402 0.565679,-0.55087 0.849818,-1.31959 0.849818,-2.30364 0,-1.24301 -0.298323,-2.20466 -0.892105,-2.88169 -0.561984,-0.67014 -1.356936,-1.30597 -2.378808,-1.90549 -2.545658,-1.52335 -4.591684,-3.07328 -6.169683,-4.66006 -1.525067,-1.55752 -2.73869,-3.70442 -3.653278,-6.43904 -0.905005,-2.70597 -1.35396,-6.24557 -1.35396,-10.63999 0,-3.39135 0.363838,-6.40306 1.096167,-9.05196 0.76333,-2.67412 1.858441,-4.82717 3.297862,-6.46134 1.463389,-1.66139 3.214974,-2.63911 5.271237,-2.91705 2.575196,-0.34807 4.668808,0.92176 6.245321,3.85385 0,0 1.09033,-3.74279 1.09033,-3.74279 0,0 6.348356,-0.82092 6.348356,-0.82092 0,0 0,18.96847 0,18.96847 0,0 -6.786008,0.2165 -6.786008,0.2165 -0.609307,-2.27789 -1.286484,-3.8347 -2.030019,-4.67641 -0.709373,-0.83679 -1.679464,-1.21296 -2.902034,-1.13409 -0.933656,0.0602 -1.65478,0.41003 -2.168306,1.04714 -0.483823,0.632 -0.724765,1.47384 -0.724765,2.52806 0,1.15462 0.348235,2.0463 1.048758,2.6787 0.733246,0.5859 1.775336,1.14381 3.136838,1.67604 2.467962,0.98919 4.60506,2.27242 6.386229,3.85172 1.845618,1.55595 3.338728,3.83909 4.462077,6.85266 1.168195,2.99557 1.757552,6.86671 1.757552,11.58646 0,4.0063 -0.494025,7.5631 -1.474675,10.64712 -0.939738,3.05852 -2.286413,5.33934 -4.023046,6.8439 -1.676024,1.48358 -3.570435,2.00029 -5.669372,1.57674 0,0 0,0 0,0"
               inkscape:connector-curvature="0" />
          </g>
        </g>
      </g>
      <text
         id="text5636"
         y="142.495"
         x="266.2395"
         style="font-style:normal;font-variant:normal;font-weight:normal;font-stretch:normal;font-size:8.67868614px;line-height:1.25;font-family:Bevan;-inkscape-font-specification:'Bevan, Normal';font-variant-ligatures:normal;font-variant-caps:normal;font-variant-numeric:normal;font-feature-settings:normal;text-align:start;letter-spacing:0px;word-spacing:0px;writing-mode:lr-tb;text-anchor:start;fill:#000000;fill-opacity:1;stroke:none;stroke-width:0.81363499"
         xml:space="preserve"><tspan
           style="font-style:normal;font-variant:normal;font-weight:normal;font-stretch:normal;font-size:8.67868614px;font-family:Bevan;-inkscape-font-specification:'Bevan, Normal';font-variant-ligatures:normal;font-variant-caps:normal;font-variant-numeric:normal;font-feature-settings:normal;text-align:start;writing-mode:lr-tb;text-anchor:start;stroke-width:0.81363499"
           y="142.495"
           x="266.2395"
           id="tspan5634"
           sodipodi:role="line">1dT Capacity  -  Sealed  -  4g</tspan></text>
    </g>
    <g
       id="g5987"
       inkscape:export-xdpi="300"
       inkscape:export-ydpi="300">
      <g
         inkscape:export-ydpi="600"
         inkscape:export-xdpi="600"
         transform="matrix(1.3760491,0,0,1.3760491,-8.9186159,-70.61474)"
         id="g5925">
        <text
           xml:space="preserve"
           style="font-style:normal;font-variant:normal;font-weight:normal;font-stretch:normal;font-size:22.77909088px;line-height:1.25;font-family:Bevan;-inkscape-font-specification:'Bevan, Normal';font-variant-ligatures:normal;font-variant-caps:normal;font-variant-numeric:normal;font-feature-settings:normal;text-align:start;letter-spacing:0px;word-spacing:0px;writing-mode:lr-tb;text-anchor:start;fill:#000000;fill-opacity:1;stroke:#ffffff;stroke-width:0.62616998;stroke-miterlimit:4;stroke-dasharray:none"
           x="22.281544"
           y="205.9128"
           id="text4488-57"><tspan
             sodipodi:role="line"
             x="22.281544"
             y="205.9128"
             style="font-style:normal;font-variant:normal;font-weight:normal;font-stretch:normal;font-size:22.77909088px;font-family:Bevan;-inkscape-font-specification:'Bevan, Normal';font-variant-ligatures:normal;font-variant-caps:normal;font-variant-numeric:normal;font-feature-settings:normal;text-align:start;writing-mode:lr-tb;text-anchor:start;stroke:#ffffff;stroke-width:0.62616998;stroke-miterlimit:4;stroke-dasharray:none"
             id="tspan5330">Industrial</tspan></text>
        <text
           xml:space="preserve"
           style="font-style:normal;font-variant:normal;font-weight:normal;font-stretch:normal;font-size:22.77909088px;line-height:1.25;font-family:Bevan;-inkscape-font-specification:'Bevan, Normal';font-variant-ligatures:normal;font-variant-caps:normal;font-variant-numeric:normal;font-feature-settings:normal;text-align:start;letter-spacing:0px;word-spacing:0px;writing-mode:lr-tb;text-anchor:start;fill:#000000;fill-opacity:1;stroke:#ffffff;stroke-width:0.62616998;stroke-miterlimit:4;stroke-dasharray:none"
           x="22.851021"
           y="226.53937"
           id="text4488-57-1"><tspan
             sodipodi:role="line"
             x="22.851021"
             y="226.53937"
             style="font-style:normal;font-variant:normal;font-weight:normal;font-stretch:normal;font-size:22.77909088px;font-family:Bevan;-inkscape-font-specification:'Bevan, Normal';font-variant-ligatures:normal;font-variant-caps:normal;font-variant-numeric:normal;font-feature-settings:normal;text-align:start;writing-mode:lr-tb;text-anchor:start;stroke:#ffffff;stroke-width:0.62616998;stroke-miterlimit:4;stroke-dasharray:none"
             id="tspan5330-0">Storage</tspan></text>
        <text
           xml:space="preserve"
           style="font-style:normal;font-variant:normal;font-weight:normal;font-stretch:normal;font-size:22.77909088px;line-height:1.25;font-family:Bevan;-inkscape-font-specification:'Bevan, Normal';font-variant-ligatures:normal;font-variant-caps:normal;font-variant-numeric:normal;font-feature-settings:normal;text-align:start;letter-spacing:0px;word-spacing:0px;writing-mode:lr-tb;text-anchor:start;fill:#000000;fill-opacity:1;stroke:#ffffff;stroke-width:0.62616998;stroke-miterlimit:4;stroke-dasharray:none"
           x="22.851021"
           y="247.16595"
           id="text4488-57-0"><tspan
             sodipodi:role="line"
             x="22.851021"
             y="247.16595"
             style="font-style:normal;font-variant:normal;font-weight:normal;font-stretch:normal;font-size:22.77909088px;font-family:Bevan;-inkscape-font-specification:'Bevan, Normal';font-variant-ligatures:normal;font-variant-caps:normal;font-variant-numeric:normal;font-feature-settings:normal;text-align:start;writing-mode:lr-tb;text-anchor:start;stroke:#ffffff;stroke-width:0.62616998;stroke-miterlimit:4;stroke-dasharray:none"
             id="tspan5330-5">Systems</tspan></text>
        <g
           id="g5884">
          <path
             inkscape:connector-curvature="0"
             id="path5850"
             d="m 137.4914,227.79492 7.60254,-1.02 -0.0805,-13.4713 13.48851,-4.54651 7.52205,4.29968 v 13.92191 l 5.41649,-0.70479 7.21535,2.09401 v 15.38463 l -7.21535,3.08413 -12.93854,-2.68524 -7.52204,3.17962 -13.48852,-2.79938 z"
             style="fill:#ffffff;stroke:#000000;stroke-width:0.76499999;stroke-linecap:butt;stroke-linejoin:miter;stroke-miterlimit:4;stroke-dasharray:none;stroke-opacity:1" />
          <g
             id="g5743">
            <g
               id="g5289-5-3"
               transform="matrix(0.28332576,0,0,0.28332576,131.18895,179.78067)">
              <path
                 inkscape:connector-curvature="0"
                 id="path4654-6-6"
                 style="opacity:1;vector-effect:none;fill:#afafde;fill-opacity:1;fill-rule:evenodd;stroke:none;stroke-width:7.55905533;stroke-linecap:round;stroke-linejoin:round;stroke-miterlimit:4;stroke-dasharray:none;stroke-dashoffset:0;stroke-opacity:1"
                 d="m 110.36905,168.11012 30.99404,5.50695 17.28423,-6.32501 -27.54521,-3.26278 z"
                 transform="matrix(1.5360308,0,0,1.7941722,-120.7366,-141.0358)" />
              <path
                 inkscape:connector-curvature="0"
                 id="path4660-1-2"
                 style="opacity:1;vector-effect:none;fill:#ffcc00;fill-opacity:1;fill-rule:evenodd;stroke:none;stroke-width:7.55905533;stroke-linecap:round;stroke-linejoin:round;stroke-miterlimit:4;stroke-dasharray:none;stroke-dashoffset:0;stroke-opacity:1"
                 d="m 141.36309,135.61035 v 38.00672 l 17.28423,-2.16109 v -27.38726 z"
                 transform="matrix(1.5360308,0,0,1.7941722,-120.7366,-141.0358)"
                 sodipodi:nodetypes="ccccc" />
              <path
                 inkscape:connector-curvature="0"
                 id="path4662-4-6"
                 style="opacity:1;vector-effect:none;fill:#806600;fill-opacity:1;fill-rule:evenodd;stroke:none;stroke-width:7.55905533;stroke-linecap:round;stroke-linejoin:round;stroke-miterlimit:4;stroke-dasharray:none;stroke-dashoffset:0;stroke-opacity:1"
                 d="m 110.36905,144.55427 30.99404,-8.94392 v 38.00672 l -30.99404,-0.30205 z"
                 transform="matrix(1.5360308,0,0,1.7941722,-120.7366,-141.0358)"
                 sodipodi:nodetypes="ccccc" />
              <g
                 transform="translate(112.07877,-179.13618)"
                 id="g5106-4-3-4">
                <g
                   aria-label="I"
                   style="font-style:normal;font-variant:normal;font-weight:normal;font-stretch:normal;font-size:53.06085968px;line-height:1.25;font-family:Bevan;-inkscape-font-specification:'Bevan, Normal';font-variant-ligatures:normal;font-variant-caps:normal;font-variant-numeric:normal;font-feature-settings:normal;text-align:start;letter-spacing:0px;word-spacing:0px;writing-mode:lr-tb;text-anchor:start;fill:#000000;fill-opacity:1;stroke:#ffffff;stroke-width:1.45857966;stroke-miterlimit:4;stroke-dasharray:none"
                   id="text4488-5-6-0" />
                <g
                   aria-label="S"
                   style="font-style:normal;font-variant:normal;font-weight:normal;font-stretch:normal;font-size:53.06085968px;line-height:1.25;font-family:Bevan;-inkscape-font-specification:'Bevan, Normal';font-variant-ligatures:normal;font-variant-caps:normal;font-variant-numeric:normal;font-feature-settings:normal;text-align:start;letter-spacing:0px;word-spacing:0px;writing-mode:lr-tb;text-anchor:start;fill:#000000;fill-opacity:1;stroke:#ffffff;stroke-width:1.45857966;stroke-miterlimit:4;stroke-dasharray:none"
                   id="text4488-0-2-6-7" />
                <g
                   aria-label="S"
                   style="font-style:normal;font-variant:normal;font-weight:normal;font-stretch:normal;font-size:53.06085968px;line-height:1.25;font-family:Bevan;-inkscape-font-specification:'Bevan, Normal';font-variant-ligatures:normal;font-variant-caps:normal;font-variant-numeric:normal;font-feature-settings:normal;text-align:start;letter-spacing:0px;word-spacing:0px;writing-mode:lr-tb;text-anchor:start;fill:#000000;fill-opacity:1;stroke:#ffffff;stroke-width:1.45857966;stroke-miterlimit:4;stroke-dasharray:none"
                   id="text4488-7-3-7-54" />
              </g>
            </g>
            <g
               id="g5289-5"
               transform="matrix(0.28332576,0,0,0.28332576,123.6669,199.03447)">
              <path
                 inkscape:connector-curvature="0"
                 id="path4652-7"
                 style="opacity:1;vector-effect:none;fill:#353564;fill-opacity:1;fill-rule:evenodd;stroke:none;stroke-width:7.55905533;stroke-linecap:round;stroke-linejoin:round;stroke-miterlimit:4;stroke-dasharray:none;stroke-dashoffset:0;stroke-opacity:1"
                 d="m 110.36905,135.18545 v 32.92467 l 20.73306,-4.08084 v -26.07309 z"
                 transform="matrix(1.5360308,0,0,1.7941722,-120.7366,-141.0358)" />
              <path
                 inkscape:connector-curvature="0"
                 id="path4654-6"
                 style="opacity:1;vector-effect:none;fill:#afafde;fill-opacity:1;fill-rule:evenodd;stroke:none;stroke-width:7.55905533;stroke-linecap:round;stroke-linejoin:round;stroke-miterlimit:4;stroke-dasharray:none;stroke-dashoffset:0;stroke-opacity:1"
                 d="m 110.36905,168.11012 30.99404,5.50695 17.28423,-6.32501 -27.54521,-3.26278 z"
                 transform="matrix(1.5360308,0,0,1.7941722,-120.7366,-141.0358)" />
              <path
                 inkscape:connector-curvature="0"
                 id="path4656-6"
                 style="opacity:1;vector-effect:none;fill:#e9e9ff;fill-opacity:1;fill-rule:evenodd;stroke:none;stroke-width:7.55905533;stroke-linecap:round;stroke-linejoin:round;stroke-miterlimit:4;stroke-dasharray:none;stroke-dashoffset:0;stroke-opacity:1"
                 d="m 131.10211,137.95619 27.54521,-2.21531 v 31.55118 l -27.54521,-3.26278 z"
                 transform="matrix(1.5360308,0,0,1.7941722,-120.7366,-141.0358)" />
              <path
                 inkscape:connector-curvature="0"
                 id="path4658-9"
                 style="opacity:1;vector-effect:none;fill:#4d4d9f;fill-opacity:1;fill-rule:evenodd;stroke:none;stroke-width:7.55905533;stroke-linecap:round;stroke-linejoin:round;stroke-miterlimit:4;stroke-dasharray:none;stroke-dashoffset:0;stroke-opacity:1"
                 d="m 110.36905,135.18545 30.99404,-3.73902 17.28423,4.29445 -27.54521,2.21531 z"
                 transform="matrix(1.5360308,0,0,1.7941722,-120.7366,-141.0358)" />
              <path
                 inkscape:connector-curvature="0"
                 id="path4660-1"
                 style="opacity:1;vector-effect:none;fill:#ffcc00;fill-opacity:1;fill-rule:evenodd;stroke:none;stroke-width:7.55905533;stroke-linecap:round;stroke-linejoin:round;stroke-miterlimit:4;stroke-dasharray:none;stroke-dashoffset:0;stroke-opacity:1"
                 d="m 141.36309,131.44643 v 42.17064 l 17.28423,-6.32501 v -31.55118 z"
                 transform="matrix(1.5360308,0,0,1.7941722,-120.7366,-141.0358)" />
              <path
                 inkscape:connector-curvature="0"
                 id="path4662-4"
                 style="opacity:1;vector-effect:none;fill:#806600;fill-opacity:1;fill-rule:evenodd;stroke:none;stroke-width:7.55905533;stroke-linecap:round;stroke-linejoin:round;stroke-miterlimit:4;stroke-dasharray:none;stroke-dashoffset:0;stroke-opacity:1"
                 d="m 110.36905,135.18545 30.99404,-3.73902 v 42.17064 l -30.99404,-5.50695 z"
                 transform="matrix(1.5360308,0,0,1.7941722,-120.7366,-141.0358)" />
              <g
                 transform="translate(112.07877,-179.13618)"
                 id="g5106-4-3">
                <g
                   aria-label="I"
                   style="font-style:normal;font-variant:normal;font-weight:normal;font-stretch:normal;font-size:53.06085968px;line-height:1.25;font-family:Bevan;-inkscape-font-specification:'Bevan, Normal';font-variant-ligatures:normal;font-variant-caps:normal;font-variant-numeric:normal;font-feature-settings:normal;text-align:start;letter-spacing:0px;word-spacing:0px;writing-mode:lr-tb;text-anchor:start;fill:#000000;fill-opacity:1;stroke:#ffffff;stroke-width:1.45857966;stroke-miterlimit:4;stroke-dasharray:none"
                   id="text4488-5-6" />
                <g
                   aria-label="S"
                   style="font-style:normal;font-variant:normal;font-weight:normal;font-stretch:normal;font-size:53.06085968px;line-height:1.25;font-family:Bevan;-inkscape-font-specification:'Bevan, Normal';font-variant-ligatures:normal;font-variant-caps:normal;font-variant-numeric:normal;font-feature-settings:normal;text-align:start;letter-spacing:0px;word-spacing:0px;writing-mode:lr-tb;text-anchor:start;fill:#000000;fill-opacity:1;stroke:#ffffff;stroke-width:1.45857966;stroke-miterlimit:4;stroke-dasharray:none"
                   id="text4488-0-2-6" />
                <g
                   aria-label="S"
                   style="font-style:normal;font-variant:normal;font-weight:normal;font-stretch:normal;font-size:53.06085968px;line-height:1.25;font-family:Bevan;-inkscape-font-specification:'Bevan, Normal';font-variant-ligatures:normal;font-variant-caps:normal;font-variant-numeric:normal;font-feature-settings:normal;text-align:start;letter-spacing:0px;word-spacing:0px;writing-mode:lr-tb;text-anchor:start;fill:#000000;fill-opacity:1;stroke:#ffffff;stroke-width:1.45857966;stroke-miterlimit:4;stroke-dasharray:none"
                   id="text4488-7-3-7" />
              </g>
            </g>
            <g
               id="g5289-5-9"
               transform="matrix(0.27177365,0,0,0.27177365,145.24113,200.5093)">
              <path
                 inkscape:connector-curvature="0"
                 id="path4652-7-0"
                 style="opacity:1;vector-effect:none;fill:#353564;fill-opacity:1;fill-rule:evenodd;stroke:none;stroke-width:7.55905533;stroke-linecap:round;stroke-linejoin:round;stroke-miterlimit:4;stroke-dasharray:none;stroke-dashoffset:0;stroke-opacity:1"
                 d="m 110.36905,135.18545 v 32.92467 l 20.73306,-4.08084 v -26.07309 z"
                 transform="matrix(1.5360308,0,0,1.7941722,-120.7366,-141.0358)" />
              <path
                 inkscape:connector-curvature="0"
                 id="path4654-6-7"
                 style="opacity:1;vector-effect:none;fill:#afafde;fill-opacity:1;fill-rule:evenodd;stroke:none;stroke-width:7.55905533;stroke-linecap:round;stroke-linejoin:round;stroke-miterlimit:4;stroke-dasharray:none;stroke-dashoffset:0;stroke-opacity:1"
                 d="m 110.36905,168.11012 30.99404,5.50695 17.28423,-6.32501 -27.54521,-3.26278 z"
                 transform="matrix(1.5360308,0,0,1.7941722,-120.7366,-141.0358)" />
              <path
                 inkscape:connector-curvature="0"
                 id="path4656-6-6"
                 style="opacity:1;vector-effect:none;fill:#e9e9ff;fill-opacity:1;fill-rule:evenodd;stroke:none;stroke-width:7.55905533;stroke-linecap:round;stroke-linejoin:round;stroke-miterlimit:4;stroke-dasharray:none;stroke-dashoffset:0;stroke-opacity:1"
                 d="m 131.10211,137.95619 27.54521,-2.21531 v 31.55118 l -27.54521,-3.26278 z"
                 transform="matrix(1.5360308,0,0,1.7941722,-120.7366,-141.0358)" />
              <path
                 inkscape:connector-curvature="0"
                 id="path4658-9-6"
                 style="opacity:1;vector-effect:none;fill:#4d4d9f;fill-opacity:1;fill-rule:evenodd;stroke:none;stroke-width:7.55905533;stroke-linecap:round;stroke-linejoin:round;stroke-miterlimit:4;stroke-dasharray:none;stroke-dashoffset:0;stroke-opacity:1"
                 d="m 110.36905,135.18545 30.99404,-3.73902 17.28423,4.29445 -27.54521,2.21531 z"
                 transform="matrix(1.5360308,0,0,1.7941722,-120.7366,-141.0358)" />
              <path
                 inkscape:connector-curvature="0"
                 id="path4660-1-8"
                 style="opacity:1;vector-effect:none;fill:#ffcc00;fill-opacity:1;fill-rule:evenodd;stroke:none;stroke-width:7.55905533;stroke-linecap:round;stroke-linejoin:round;stroke-miterlimit:4;stroke-dasharray:none;stroke-dashoffset:0;stroke-opacity:1"
                 d="m 141.36309,131.44643 v 42.17064 l 17.28423,-6.32501 v -31.55118 z"
                 transform="matrix(1.5360308,0,0,1.7941722,-120.7366,-141.0358)" />
              <path
                 inkscape:connector-curvature="0"
                 id="path4662-4-7"
                 style="opacity:1;vector-effect:none;fill:#806600;fill-opacity:1;fill-rule:evenodd;stroke:none;stroke-width:7.55905533;stroke-linecap:round;stroke-linejoin:round;stroke-miterlimit:4;stroke-dasharray:none;stroke-dashoffset:0;stroke-opacity:1"
                 d="m 110.36905,135.18545 30.99404,-3.73902 v 42.17064 l -30.99404,-5.50695 z"
                 transform="matrix(1.5360308,0,0,1.7941722,-120.7366,-141.0358)" />
              <g
                 transform="translate(112.07877,-179.13618)"
                 id="g5106-4-3-7">
                <g
                   aria-label="I"
                   style="font-style:normal;font-variant:normal;font-weight:normal;font-stretch:normal;font-size:53.06085968px;line-height:1.25;font-family:Bevan;-inkscape-font-specification:'Bevan, Normal';font-variant-ligatures:normal;font-variant-caps:normal;font-variant-numeric:normal;font-feature-settings:normal;text-align:start;letter-spacing:0px;word-spacing:0px;writing-mode:lr-tb;text-anchor:start;fill:#000000;fill-opacity:1;stroke:#ffffff;stroke-width:1.45857966;stroke-miterlimit:4;stroke-dasharray:none"
                   id="text4488-5-6-6" />
                <g
                   aria-label="S"
                   style="font-style:normal;font-variant:normal;font-weight:normal;font-stretch:normal;font-size:53.06085968px;line-height:1.25;font-family:Bevan;-inkscape-font-specification:'Bevan, Normal';font-variant-ligatures:normal;font-variant-caps:normal;font-variant-numeric:normal;font-feature-settings:normal;text-align:start;letter-spacing:0px;word-spacing:0px;writing-mode:lr-tb;text-anchor:start;fill:#000000;fill-opacity:1;stroke:#ffffff;stroke-width:1.45857966;stroke-miterlimit:4;stroke-dasharray:none"
                   id="text4488-0-2-6-6" />
                <g
                   aria-label="S"
                   style="font-style:normal;font-variant:normal;font-weight:normal;font-stretch:normal;font-size:53.06085968px;line-height:1.25;font-family:Bevan;-inkscape-font-specification:'Bevan, Normal';font-variant-ligatures:normal;font-variant-caps:normal;font-variant-numeric:normal;font-feature-settings:normal;text-align:start;letter-spacing:0px;word-spacing:0px;writing-mode:lr-tb;text-anchor:start;fill:#000000;fill-opacity:1;stroke:#ffffff;stroke-width:1.45857966;stroke-miterlimit:4;stroke-dasharray:none"
                   id="text4488-7-3-7-5" />
              </g>
            </g>
          </g>
        </g>
      </g>
      <text
         xml:space="preserve"
         style="font-style:normal;font-variant:normal;font-weight:normal;font-stretch:normal;font-size:6.43025827px;line-height:1.25;font-family:'Keania One';-inkscape-font-specification:'Keania One, Normal';font-variant-ligatures:normal;font-variant-caps:normal;font-variant-numeric:normal;font-feature-settings:normal;text-align:start;letter-spacing:0px;word-spacing:0px;writing-mode:lr-tb;text-anchor:start;fill:#000000;fill-opacity:1;stroke:none;stroke-width:0.60283667"
         x="259.04446"
         y="212.77953"
         id="text5574-9"><tspan
           sodipodi:role="line"
           id="tspan5572-7"
           x="259.04446"
           y="212.77953"
           style="font-style:normal;font-variant:normal;font-weight:normal;font-stretch:normal;font-size:38.58154678px;font-family:'Black Ops One';-inkscape-font-specification:'Black Ops One, Normal';font-variant-ligatures:normal;font-variant-caps:normal;font-variant-numeric:normal;font-feature-settings:normal;text-align:start;writing-mode:lr-tb;text-anchor:start;stroke-width:0.60283667">6E-05</tspan></text>
    </g>
  </g>
</svg>
