<?xml version="1.0" encoding="UTF-8" standalone="no"?>
<!-- Created with Inkscape (http://www.inkscape.org/) -->

<svg
   xmlns:dc="http://purl.org/dc/elements/1.1/"
   xmlns:cc="http://creativecommons.org/ns#"
   xmlns:rdf="http://www.w3.org/1999/02/22-rdf-syntax-ns#"
   xmlns:svg="http://www.w3.org/2000/svg"
   xmlns="http://www.w3.org/2000/svg"
   xmlns:sodipodi="http://sodipodi.sourceforge.net/DTD/sodipodi-0.dtd"
   xmlns:inkscape="http://www.inkscape.org/namespaces/inkscape"
   width="297mm"
   height="210mm"
   viewBox="0 0 297 210"
   version="1.1"
   id="svg8"
   inkscape:version="0.92.3 (2405546, 2018-03-11)"
   sodipodi:docname="hex-codes.svg"
   inkscape:export-filename="/home/sam/rpg/scifi-models/starships/hex-codes.png"
   inkscape:export-xdpi="600"
   inkscape:export-ydpi="600">
  <defs
     id="defs2" />
  <sodipodi:namedview
     id="base"
     pagecolor="#ffffff"
     bordercolor="#666666"
     borderopacity="1.0"
     inkscape:pageopacity="0.0"
     inkscape:pageshadow="2"
     inkscape:zoom="1.4"
     inkscape:cx="88.098011"
     inkscape:cy="615.30146"
     inkscape:document-units="mm"
     inkscape:current-layer="g1217"
     showgrid="false"
     inkscape:window-width="2560"
     inkscape:window-height="1329"
     inkscape:window-x="1680"
     inkscape:window-y="0"
     inkscape:window-maximized="1" />
  <metadata
     id="metadata5">
    <rdf:RDF>
      <cc:Work
         rdf:about="">
        <dc:format>image/svg+xml</dc:format>
        <dc:type
           rdf:resource="http://purl.org/dc/dcmitype/StillImage" />
        <dc:title></dc:title>
      </cc:Work>
    </rdf:RDF>
  </metadata>
  <g
     inkscape:label="Layer 1"
     inkscape:groupmode="layer"
     id="layer1"
     transform="translate(0,-87)">
    <g
       id="g1217"
       transform="translate(28.373548,97.075688)">
      <flowRoot
         transform="matrix(0.2532939,0,0,0.2532939,-13.922222,-52.708528)"
         style="font-style:normal;font-weight:normal;font-size:10.66666698px;line-height:1.25;font-family:sans-serif;letter-spacing:0px;word-spacing:0px;fill:#000000;fill-opacity:1;stroke:#ffffff;stroke-width:0.78959659;stroke-miterlimit:4;stroke-dasharray:none"
         id="flowRoot815-8"
         xml:space="preserve"><flowRegion
           style="stroke-width:0.78959659;stroke:#ffffff;stroke-miterlimit:4;stroke-dasharray:none"
           id="flowRegion817-5"><rect
             style="stroke-width:0.78959659;stroke:#ffffff;stroke-miterlimit:4;stroke-dasharray:none"
             y="292.17429"
             x="119.198"
             height="48.706032"
             width="151.59227"
             id="rect819-2" /></flowRegion><flowPara
           style="font-style:normal;font-variant:normal;font-weight:normal;font-stretch:normal;font-size:42.66666794px;font-family:'Black Ops One';-inkscape-font-specification:'Black Ops One, Normal';font-variant-ligatures:normal;font-variant-caps:normal;font-variant-numeric:normal;font-feature-settings:normal;text-align:start;writing-mode:lr-tb;text-anchor:start;stroke-width:0.78959659;stroke:#ffffff;stroke-miterlimit:4;stroke-dasharray:none"
           id="flowPara823-1">6E-05</flowPara></flowRoot>      <flowRoot
         transform="matrix(0.21208799,0,0,0.12561986,36.119344,-10.977307)"
         style="font-style:normal;font-weight:normal;font-size:10.66666698px;line-height:1.25;font-family:sans-serif;letter-spacing:0px;word-spacing:0px;fill:#000000;fill-opacity:1;stroke:#ffffff;stroke-width:1.22530105;stroke-miterlimit:4;stroke-dasharray:none"
         id="flowRoot815-8-6"
         xml:space="preserve"><flowRegion
           style="stroke-width:1.22530105;stroke:#ffffff;stroke-miterlimit:4;stroke-dasharray:none"
           id="flowRegion817-5-8"><rect
             style="stroke-width:1.22530105;stroke:#ffffff;stroke-miterlimit:4;stroke-dasharray:none"
             y="292.17429"
             x="119.198"
             height="54.648056"
             width="260.69586"
             id="rect819-2-4" /></flowRegion><flowPara
           style="font-style:normal;font-variant:normal;font-weight:normal;font-stretch:normal;font-size:42.66666794px;font-family:'Black Ops One';-inkscape-font-specification:'Black Ops One, Normal';font-variant-ligatures:normal;font-variant-caps:normal;font-variant-numeric:normal;font-feature-settings:normal;text-align:start;writing-mode:lr-tb;text-anchor:start;stroke-width:1.22530105;stroke:#ffffff;stroke-miterlimit:4;stroke-dasharray:none"
           id="flowPara823-1-8">Rated 4.5g</flowPara></flowRoot>      <flowRoot
         transform="matrix(0.21208799,0,0,0.12561986,-8.1148767,-3.1233606)"
         style="font-style:normal;font-weight:normal;font-size:10.66666698px;line-height:1.25;font-family:sans-serif;letter-spacing:0px;word-spacing:0px;fill:#000000;fill-opacity:1;stroke:#ffffff;stroke-width:1.22530105;stroke-miterlimit:4;stroke-dasharray:none"
         id="flowRoot815-8-6-1"
         xml:space="preserve"><flowRegion
           style="stroke-width:1.22530105;stroke:#ffffff;stroke-miterlimit:4;stroke-dasharray:none"
           id="flowRegion817-5-8-8"><rect
             style="stroke-width:1.22530105;stroke:#ffffff;stroke-miterlimit:4;stroke-dasharray:none"
             y="292.17429"
             x="119.198"
             height="54.648041"
             width="450.52698"
             id="rect819-2-4-0" /></flowRegion><flowPara
           style="font-style:normal;font-variant:normal;font-weight:normal;font-stretch:normal;font-size:42.66666794px;font-family:'Black Ops One';-inkscape-font-specification:'Black Ops One, Normal';font-variant-ligatures:normal;font-variant-caps:normal;font-variant-numeric:normal;font-feature-settings:normal;text-align:start;writing-mode:lr-tb;text-anchor:start;stroke-width:1.22530105;stroke:#ffffff;stroke-miterlimit:4;stroke-dasharray:none"
           id="flowPara823-1-8-1">#341B-1313-2998</flowPara></flowRoot>    </g>
    <g
       id="g1231"
       transform="translate(29.96393,97.427333)"
       style="stroke:#ffffff;stroke-width:0.1;stroke-miterlimit:4;stroke-dasharray:none">
      <flowRoot
         transform="matrix(0.2532939,0,0,0.2532939,-15.512603,-26.767868)"
         style="font-style:normal;font-weight:normal;font-size:10.66666698px;line-height:1.25;font-family:sans-serif;letter-spacing:0px;word-spacing:0px;fill:#000000;fill-opacity:1;stroke:#ffffff;stroke-width:0.3947983;stroke-miterlimit:4;stroke-dasharray:none"
         id="flowRoot815-8-1"
         xml:space="preserve"><flowRegion
           style="stroke-width:0.3947983;stroke:#ffffff;stroke-miterlimit:4;stroke-dasharray:none"
           id="flowRegion817-5-7"><rect
             style="stroke-width:0.3947983;stroke:#ffffff;stroke-miterlimit:4;stroke-dasharray:none"
             y="292.17429"
             x="119.198"
             height="48.706032"
             width="151.59227"
             id="rect819-2-0" /></flowRegion><flowPara
           style="font-style:normal;font-variant:normal;font-weight:normal;font-stretch:normal;font-size:42.66666794px;font-family:'Black Ops One';-inkscape-font-specification:'Black Ops One, Normal';font-variant-ligatures:normal;font-variant-caps:normal;font-variant-numeric:normal;font-feature-settings:normal;text-align:start;writing-mode:lr-tb;text-anchor:start;stroke-width:0.3947983;stroke:#ffffff;stroke-miterlimit:4;stroke-dasharray:none"
           id="flowPara823-1-4">6E-05</flowPara></flowRoot>      <flowRoot
         transform="matrix(0.21208799,0,0,0.12561986,34.528965,14.96335)"
         style="font-style:normal;font-weight:normal;font-size:10.66666698px;line-height:1.25;font-family:sans-serif;letter-spacing:0px;word-spacing:0px;fill:#000000;fill-opacity:1;stroke:#ffffff;stroke-width:0.61265053;stroke-miterlimit:4;stroke-dasharray:none"
         id="flowRoot815-8-6-0"
         xml:space="preserve"><flowRegion
           style="stroke-width:0.61265053;stroke:#ffffff;stroke-miterlimit:4;stroke-dasharray:none"
           id="flowRegion817-5-8-85"><rect
             style="stroke-width:0.61265053;stroke:#ffffff;stroke-miterlimit:4;stroke-dasharray:none"
             y="292.17429"
             x="119.198"
             height="54.648056"
             width="260.69586"
             id="rect819-2-4-1" /></flowRegion><flowPara
           style="font-style:normal;font-variant:normal;font-weight:normal;font-stretch:normal;font-size:42.66666794px;font-family:'Black Ops One';-inkscape-font-specification:'Black Ops One, Normal';font-variant-ligatures:normal;font-variant-caps:normal;font-variant-numeric:normal;font-feature-settings:normal;text-align:start;writing-mode:lr-tb;text-anchor:start;stroke-width:0.61265053;stroke:#ffffff;stroke-miterlimit:4;stroke-dasharray:none"
           id="flowPara823-1-8-6">Rated 4.5g</flowPara></flowRoot>      <flowRoot
         transform="matrix(0.21208799,0,0,0.12561986,-9.7052565,22.817297)"
         style="font-style:normal;font-weight:normal;font-size:10.66666698px;line-height:1.25;font-family:sans-serif;letter-spacing:0px;word-spacing:0px;fill:#000000;fill-opacity:1;stroke:#ffffff;stroke-width:0.61265053;stroke-miterlimit:4;stroke-dasharray:none"
         id="flowRoot815-8-6-1-6"
         xml:space="preserve"><flowRegion
           style="stroke-width:0.61265053;stroke:#ffffff;stroke-miterlimit:4;stroke-dasharray:none"
           id="flowRegion817-5-8-8-2"><rect
             style="stroke-width:0.61265053;stroke:#ffffff;stroke-miterlimit:4;stroke-dasharray:none"
             y="292.17429"
             x="119.198"
             height="54.648041"
             width="450.52698"
             id="rect819-2-4-0-1" /></flowRegion><flowPara
           style="font-style:normal;font-variant:normal;font-weight:normal;font-stretch:normal;font-size:42.66666794px;font-family:'Black Ops One';-inkscape-font-specification:'Black Ops One, Normal';font-variant-ligatures:normal;font-variant-caps:normal;font-variant-numeric:normal;font-feature-settings:normal;text-align:start;writing-mode:lr-tb;text-anchor:start;stroke-width:0.61265053;stroke:#ffffff;stroke-miterlimit:4;stroke-dasharray:none"
           id="flowPara823-1-8-1-9">#FdF7-F974-3C85</flowPara></flowRoot>    </g>
    <g
       id="g1245"
       transform="translate(28.830002,98.30205)"
       style="stroke:#ffffff;stroke-width:0.1;stroke-miterlimit:4;stroke-dasharray:none">
      <flowRoot
         transform="matrix(0.2532939,0,0,0.2532939,-14.378676,-1.3489689)"
         style="font-style:normal;font-weight:normal;font-size:10.66666698px;line-height:1.25;font-family:sans-serif;letter-spacing:0px;word-spacing:0px;fill:#000000;fill-opacity:1;stroke:#ffffff;stroke-width:0.3947983;stroke-miterlimit:4;stroke-dasharray:none"
         id="flowRoot815-8-0"
         xml:space="preserve"><flowRegion
           style="stroke-width:0.3947983;stroke:#ffffff;stroke-miterlimit:4;stroke-dasharray:none"
           id="flowRegion817-5-81"><rect
             style="stroke-width:0.3947983;stroke:#ffffff;stroke-miterlimit:4;stroke-dasharray:none"
             y="292.17429"
             x="119.198"
             height="48.706032"
             width="151.59227"
             id="rect819-2-02" /></flowRegion><flowPara
           style="font-style:normal;font-variant:normal;font-weight:normal;font-stretch:normal;font-size:42.66666794px;font-family:'Black Ops One';-inkscape-font-specification:'Black Ops One, Normal';font-variant-ligatures:normal;font-variant-caps:normal;font-variant-numeric:normal;font-feature-settings:normal;text-align:start;writing-mode:lr-tb;text-anchor:start;stroke-width:0.3947983;stroke:#ffffff;stroke-miterlimit:4;stroke-dasharray:none"
           id="flowPara823-1-2">6E-05</flowPara></flowRoot>      <flowRoot
         transform="matrix(0.21208799,0,0,0.12561986,35.662893,40.382249)"
         style="font-style:normal;font-weight:normal;font-size:10.66666698px;line-height:1.25;font-family:sans-serif;letter-spacing:0px;word-spacing:0px;fill:#000000;fill-opacity:1;stroke:#ffffff;stroke-width:0.61265053;stroke-miterlimit:4;stroke-dasharray:none"
         id="flowRoot815-8-6-9"
         xml:space="preserve"><flowRegion
           style="stroke-width:0.61265053;stroke:#ffffff;stroke-miterlimit:4;stroke-dasharray:none"
           id="flowRegion817-5-8-7"><rect
             style="stroke-width:0.61265053;stroke:#ffffff;stroke-miterlimit:4;stroke-dasharray:none"
             y="292.17429"
             x="119.198"
             height="54.648056"
             width="260.69586"
             id="rect819-2-4-5" /></flowRegion><flowPara
           style="font-style:normal;font-variant:normal;font-weight:normal;font-stretch:normal;font-size:42.66666794px;font-family:'Black Ops One';-inkscape-font-specification:'Black Ops One, Normal';font-variant-ligatures:normal;font-variant-caps:normal;font-variant-numeric:normal;font-feature-settings:normal;text-align:start;writing-mode:lr-tb;text-anchor:start;stroke-width:0.61265053;stroke:#ffffff;stroke-miterlimit:4;stroke-dasharray:none"
           id="flowPara823-1-8-64">Rated 4.5g</flowPara></flowRoot>      <flowRoot
         transform="matrix(0.21208799,0,0,0.12561986,-8.5713286,48.236196)"
         style="font-style:normal;font-weight:normal;font-size:10.66666698px;line-height:1.25;font-family:sans-serif;letter-spacing:0px;word-spacing:0px;fill:#000000;fill-opacity:1;stroke:#ffffff;stroke-width:0.61265053;stroke-miterlimit:4;stroke-dasharray:none"
         id="flowRoot815-8-6-1-63"
         xml:space="preserve"><flowRegion
           style="stroke-width:0.61265053;stroke:#ffffff;stroke-miterlimit:4;stroke-dasharray:none"
           id="flowRegion817-5-8-8-7"><rect
             style="stroke-width:0.61265053;stroke:#ffffff;stroke-miterlimit:4;stroke-dasharray:none"
             y="292.17429"
             x="119.198"
             height="54.648041"
             width="450.52698"
             id="rect819-2-4-0-9" /></flowRegion><flowPara
           style="font-style:normal;font-variant:normal;font-weight:normal;font-stretch:normal;font-size:42.66666794px;font-family:'Black Ops One';-inkscape-font-specification:'Black Ops One, Normal';font-variant-ligatures:normal;font-variant-caps:normal;font-variant-numeric:normal;font-feature-settings:normal;text-align:start;writing-mode:lr-tb;text-anchor:start;stroke-width:0.61265053;stroke:#ffffff;stroke-miterlimit:4;stroke-dasharray:none"
           id="flowPara823-1-8-1-7">#EDA1-47E0-1FD1</flowPara></flowRoot>    </g>
    <g
       id="g1259"
       transform="translate(30.814377,101.63099)"
       style="stroke:#ffffff;stroke-width:0.1;stroke-miterlimit:4;stroke-dasharray:none">
      <flowRoot
         transform="matrix(0.2532939,0,0,0.2532939,-16.36305,21.613085)"
         style="font-style:normal;font-weight:normal;font-size:10.66666698px;line-height:1.25;font-family:sans-serif;letter-spacing:0px;word-spacing:0px;fill:#000000;fill-opacity:1;stroke:#ffffff;stroke-width:0.3947983;stroke-miterlimit:4;stroke-dasharray:none"
         id="flowRoot815-8-06"
         xml:space="preserve"><flowRegion
           style="stroke-width:0.3947983;stroke:#ffffff;stroke-miterlimit:4;stroke-dasharray:none"
           id="flowRegion817-5-0"><rect
             style="stroke-width:0.3947983;stroke:#ffffff;stroke-miterlimit:4;stroke-dasharray:none"
             y="292.17429"
             x="119.198"
             height="48.706032"
             width="151.59227"
             id="rect819-2-8" /></flowRegion><flowPara
           style="font-style:normal;font-variant:normal;font-weight:normal;font-stretch:normal;font-size:42.66666794px;font-family:'Black Ops One';-inkscape-font-specification:'Black Ops One, Normal';font-variant-ligatures:normal;font-variant-caps:normal;font-variant-numeric:normal;font-feature-settings:normal;text-align:start;writing-mode:lr-tb;text-anchor:start;stroke-width:0.3947983;stroke:#ffffff;stroke-miterlimit:4;stroke-dasharray:none"
           id="flowPara823-1-5">6E-05</flowPara></flowRoot>      <flowRoot
         transform="matrix(0.21208799,0,0,0.12561986,33.678518,63.344303)"
         style="font-style:normal;font-weight:normal;font-size:10.66666698px;line-height:1.25;font-family:sans-serif;letter-spacing:0px;word-spacing:0px;fill:#000000;fill-opacity:1;stroke:#ffffff;stroke-width:0.61265053;stroke-miterlimit:4;stroke-dasharray:none"
         id="flowRoot815-8-6-3"
         xml:space="preserve"><flowRegion
           style="stroke-width:0.61265053;stroke:#ffffff;stroke-miterlimit:4;stroke-dasharray:none"
           id="flowRegion817-5-8-9"><rect
             style="stroke-width:0.61265053;stroke:#ffffff;stroke-miterlimit:4;stroke-dasharray:none"
             y="292.17429"
             x="119.198"
             height="54.648056"
             width="260.69586"
             id="rect819-2-4-4" /></flowRegion><flowPara
           style="font-style:normal;font-variant:normal;font-weight:normal;font-stretch:normal;font-size:42.66666794px;font-family:'Black Ops One';-inkscape-font-specification:'Black Ops One, Normal';font-variant-ligatures:normal;font-variant-caps:normal;font-variant-numeric:normal;font-feature-settings:normal;text-align:start;writing-mode:lr-tb;text-anchor:start;stroke-width:0.61265053;stroke:#ffffff;stroke-miterlimit:4;stroke-dasharray:none"
           id="flowPara823-1-8-15">Rated 4.5g</flowPara></flowRoot>      <flowRoot
         transform="matrix(0.21208799,0,0,0.12561986,-10.555703,71.19825)"
         style="font-style:normal;font-weight:normal;font-size:10.66666698px;line-height:1.25;font-family:sans-serif;letter-spacing:0px;word-spacing:0px;fill:#000000;fill-opacity:1;stroke:#ffffff;stroke-width:0.61265053;stroke-miterlimit:4;stroke-dasharray:none"
         id="flowRoot815-8-6-1-4"
         xml:space="preserve"><flowRegion
           style="stroke-width:0.61265053;stroke:#ffffff;stroke-miterlimit:4;stroke-dasharray:none"
           id="flowRegion817-5-8-8-1"><rect
             style="stroke-width:0.61265053;stroke:#ffffff;stroke-miterlimit:4;stroke-dasharray:none"
             y="292.17429"
             x="119.198"
             height="54.648041"
             width="450.52698"
             id="rect819-2-4-0-5" /></flowRegion><flowPara
           style="font-style:normal;font-variant:normal;font-weight:normal;font-stretch:normal;font-size:42.66666794px;font-family:'Black Ops One';-inkscape-font-specification:'Black Ops One, Normal';font-variant-ligatures:normal;font-variant-caps:normal;font-variant-numeric:normal;font-feature-settings:normal;text-align:start;writing-mode:lr-tb;text-anchor:start;stroke-width:0.61265053;stroke:#ffffff;stroke-miterlimit:4;stroke-dasharray:none"
           id="flowPara823-1-8-1-5">#6E1A-4F38-3F54</flowPara></flowRoot>    </g>
    <g
       id="g1273"
       transform="translate(33.838186,105.34052)"
       style="stroke:#ffffff;stroke-width:0.1;stroke-miterlimit:4;stroke-dasharray:none">
      <flowRoot
         transform="matrix(0.2532939,0,0,0.2532939,-19.386859,44.197162)"
         style="font-style:normal;font-weight:normal;font-size:10.66666698px;line-height:1.25;font-family:sans-serif;letter-spacing:0px;word-spacing:0px;fill:#000000;fill-opacity:1;stroke:#ffffff;stroke-width:0.3947983;stroke-miterlimit:4;stroke-dasharray:none"
         id="flowRoot815-8-2"
         xml:space="preserve"><flowRegion
           style="stroke-width:0.3947983;stroke:#ffffff;stroke-miterlimit:4;stroke-dasharray:none"
           id="flowRegion817-5-2"><rect
             style="stroke-width:0.3947983;stroke:#ffffff;stroke-miterlimit:4;stroke-dasharray:none"
             y="292.17429"
             x="119.198"
             height="48.706032"
             width="151.59227"
             id="rect819-2-2" /></flowRegion><flowPara
           style="font-style:normal;font-variant:normal;font-weight:normal;font-stretch:normal;font-size:42.66666794px;font-family:'Black Ops One';-inkscape-font-specification:'Black Ops One, Normal';font-variant-ligatures:normal;font-variant-caps:normal;font-variant-numeric:normal;font-feature-settings:normal;text-align:start;writing-mode:lr-tb;text-anchor:start;stroke-width:0.3947983;stroke:#ffffff;stroke-miterlimit:4;stroke-dasharray:none"
           id="flowPara823-1-7">6E-05</flowPara></flowRoot>      <flowRoot
         transform="matrix(0.21208799,0,0,0.12561986,30.654708,85.92838)"
         style="font-style:normal;font-weight:normal;font-size:10.66666698px;line-height:1.25;font-family:sans-serif;letter-spacing:0px;word-spacing:0px;fill:#000000;fill-opacity:1;stroke:#ffffff;stroke-width:0.61265053;stroke-miterlimit:4;stroke-dasharray:none"
         id="flowRoot815-8-6-03"
         xml:space="preserve"><flowRegion
           style="stroke-width:0.61265053;stroke:#ffffff;stroke-miterlimit:4;stroke-dasharray:none"
           id="flowRegion817-5-8-4"><rect
             style="stroke-width:0.61265053;stroke:#ffffff;stroke-miterlimit:4;stroke-dasharray:none"
             y="292.17429"
             x="119.198"
             height="54.648056"
             width="260.69586"
             id="rect819-2-4-6" /></flowRegion><flowPara
           style="font-style:normal;font-variant:normal;font-weight:normal;font-stretch:normal;font-size:42.66666794px;font-family:'Black Ops One';-inkscape-font-specification:'Black Ops One, Normal';font-variant-ligatures:normal;font-variant-caps:normal;font-variant-numeric:normal;font-feature-settings:normal;text-align:start;writing-mode:lr-tb;text-anchor:start;stroke-width:0.61265053;stroke:#ffffff;stroke-miterlimit:4;stroke-dasharray:none"
           id="flowPara823-1-8-3">Rated 4.5g</flowPara></flowRoot>      <flowRoot
         transform="matrix(0.21208799,0,0,0.12561986,-13.579512,93.782327)"
         style="font-style:normal;font-weight:normal;font-size:10.66666698px;line-height:1.25;font-family:sans-serif;letter-spacing:0px;word-spacing:0px;fill:#000000;fill-opacity:1;stroke:#ffffff;stroke-width:0.61265053;stroke-miterlimit:4;stroke-dasharray:none"
         id="flowRoot815-8-6-1-633"
         xml:space="preserve"><flowRegion
           style="stroke-width:0.61265053;stroke:#ffffff;stroke-miterlimit:4;stroke-dasharray:none"
           id="flowRegion817-5-8-8-4"><rect
             style="stroke-width:0.61265053;stroke:#ffffff;stroke-miterlimit:4;stroke-dasharray:none"
             y="292.17429"
             x="119.198"
             height="54.648041"
             width="450.52698"
             id="rect819-2-4-0-4" /></flowRegion><flowPara
           style="font-style:normal;font-variant:normal;font-weight:normal;font-stretch:normal;font-size:42.66666794px;font-family:'Black Ops One';-inkscape-font-specification:'Black Ops One, Normal';font-variant-ligatures:normal;font-variant-caps:normal;font-variant-numeric:normal;font-feature-settings:normal;text-align:start;writing-mode:lr-tb;text-anchor:start;stroke-width:0.61265053;stroke:#ffffff;stroke-miterlimit:4;stroke-dasharray:none"
           id="flowPara823-1-8-1-3">#21F0-2316-E347</flowPara></flowRoot>    </g>
    <g
       id="g1287"
       transform="translate(35.822562,107.44235)"
       style="stroke:#ffffff;stroke-width:0.1;stroke-miterlimit:4;stroke-dasharray:none">
      <flowRoot
         transform="matrix(0.2532939,0,0,0.2532939,-21.371235,68.387639)"
         style="font-style:normal;font-weight:normal;font-size:10.66666698px;line-height:1.25;font-family:sans-serif;letter-spacing:0px;word-spacing:0px;fill:#000000;fill-opacity:1;stroke:#ffffff;stroke-width:0.3947983;stroke-miterlimit:4;stroke-dasharray:none"
         id="flowRoot815-8-9"
         xml:space="preserve"><flowRegion
           style="stroke-width:0.3947983;stroke:#ffffff;stroke-miterlimit:4;stroke-dasharray:none"
           id="flowRegion817-5-02"><rect
             style="stroke-width:0.3947983;stroke:#ffffff;stroke-miterlimit:4;stroke-dasharray:none"
             y="292.17429"
             x="119.198"
             height="48.706032"
             width="151.59227"
             id="rect819-2-47" /></flowRegion><flowPara
           style="font-style:normal;font-variant:normal;font-weight:normal;font-stretch:normal;font-size:42.66666794px;font-family:'Black Ops One';-inkscape-font-specification:'Black Ops One, Normal';font-variant-ligatures:normal;font-variant-caps:normal;font-variant-numeric:normal;font-feature-settings:normal;text-align:start;writing-mode:lr-tb;text-anchor:start;stroke-width:0.3947983;stroke:#ffffff;stroke-miterlimit:4;stroke-dasharray:none"
           id="flowPara823-1-6">6E-05</flowPara></flowRoot>      <flowRoot
         transform="matrix(0.21208799,0,0,0.12561986,28.670333,110.11886)"
         style="font-style:normal;font-weight:normal;font-size:10.66666698px;line-height:1.25;font-family:sans-serif;letter-spacing:0px;word-spacing:0px;fill:#000000;fill-opacity:1;stroke:#ffffff;stroke-width:0.61265053;stroke-miterlimit:4;stroke-dasharray:none"
         id="flowRoot815-8-6-5"
         xml:space="preserve"><flowRegion
           style="stroke-width:0.61265053;stroke:#ffffff;stroke-miterlimit:4;stroke-dasharray:none"
           id="flowRegion817-5-8-71"><rect
             style="stroke-width:0.61265053;stroke:#ffffff;stroke-miterlimit:4;stroke-dasharray:none"
             y="292.17429"
             x="119.198"
             height="54.648056"
             width="260.69586"
             id="rect819-2-4-3" /></flowRegion><flowPara
           style="font-style:normal;font-variant:normal;font-weight:normal;font-stretch:normal;font-size:42.66666794px;font-family:'Black Ops One';-inkscape-font-specification:'Black Ops One, Normal';font-variant-ligatures:normal;font-variant-caps:normal;font-variant-numeric:normal;font-feature-settings:normal;text-align:start;writing-mode:lr-tb;text-anchor:start;stroke-width:0.61265053;stroke:#ffffff;stroke-miterlimit:4;stroke-dasharray:none"
           id="flowPara823-1-8-33">Rated 4.5g</flowPara></flowRoot>      <flowRoot
         transform="matrix(0.21208799,0,0,0.12561986,-15.563888,117.9728)"
         style="font-style:normal;font-weight:normal;font-size:10.66666698px;line-height:1.25;font-family:sans-serif;letter-spacing:0px;word-spacing:0px;fill:#000000;fill-opacity:1;stroke:#ffffff;stroke-width:0.61265053;stroke-miterlimit:4;stroke-dasharray:none"
         id="flowRoot815-8-6-1-8"
         xml:space="preserve"><flowRegion
           style="stroke-width:0.61265053;stroke:#ffffff;stroke-miterlimit:4;stroke-dasharray:none"
           id="flowRegion817-5-8-8-5"><rect
             style="stroke-width:0.61265053;stroke:#ffffff;stroke-miterlimit:4;stroke-dasharray:none"
             y="292.17429"
             x="119.198"
             height="54.648041"
             width="450.52698"
             id="rect819-2-4-0-10" /></flowRegion><flowPara
           style="font-style:normal;font-variant:normal;font-weight:normal;font-stretch:normal;font-size:42.66666794px;font-family:'Black Ops One';-inkscape-font-specification:'Black Ops One, Normal';font-variant-ligatures:normal;font-variant-caps:normal;font-variant-numeric:normal;font-feature-settings:normal;text-align:start;writing-mode:lr-tb;text-anchor:start;stroke-width:0.61265053;stroke:#ffffff;stroke-miterlimit:4;stroke-dasharray:none"
           id="flowPara823-1-8-1-8">#1962-BB1A-D556</flowPara></flowRoot>    </g>
    <g
       id="g1301"
       transform="translate(44.061873,96.597071)"
       style="stroke:#ffffff;stroke-width:0.1;stroke-miterlimit:4;stroke-dasharray:none">
      <flowRoot
         transform="matrix(0.2532939,0,0,0.2532939,89.178211,-52.229909)"
         style="font-style:normal;font-weight:normal;font-size:10.66666698px;line-height:1.25;font-family:sans-serif;letter-spacing:0px;word-spacing:0px;fill:#000000;fill-opacity:1;stroke:#ffffff;stroke-width:0.3947983;stroke-miterlimit:4;stroke-dasharray:none"
         id="flowRoot815-8-5"
         xml:space="preserve"><flowRegion
           style="stroke-width:0.3947983;stroke:#ffffff;stroke-miterlimit:4;stroke-dasharray:none"
           id="flowRegion817-5-08"><rect
             style="stroke-width:0.3947983;stroke:#ffffff;stroke-miterlimit:4;stroke-dasharray:none"
             y="292.17429"
             x="119.198"
             height="48.706032"
             width="151.59227"
             id="rect819-2-04" /></flowRegion><flowPara
           style="font-style:normal;font-variant:normal;font-weight:normal;font-stretch:normal;font-size:42.66666794px;font-family:'Black Ops One';-inkscape-font-specification:'Black Ops One, Normal';font-variant-ligatures:normal;font-variant-caps:normal;font-variant-numeric:normal;font-feature-settings:normal;text-align:start;writing-mode:lr-tb;text-anchor:start;stroke-width:0.3947983;stroke:#ffffff;stroke-miterlimit:4;stroke-dasharray:none"
           id="flowPara823-1-1">6E-05</flowPara></flowRoot>      <flowRoot
         transform="matrix(0.21208799,0,0,0.12561986,139.21978,-10.498695)"
         style="font-style:normal;font-weight:normal;font-size:10.66666698px;line-height:1.25;font-family:sans-serif;letter-spacing:0px;word-spacing:0px;fill:#000000;fill-opacity:1;stroke:#ffffff;stroke-width:0.61265053;stroke-miterlimit:4;stroke-dasharray:none"
         id="flowRoot815-8-6-13"
         xml:space="preserve"><flowRegion
           style="stroke-width:0.61265053;stroke:#ffffff;stroke-miterlimit:4;stroke-dasharray:none"
           id="flowRegion817-5-8-5"><rect
             style="stroke-width:0.61265053;stroke:#ffffff;stroke-miterlimit:4;stroke-dasharray:none"
             y="292.17429"
             x="119.198"
             height="54.648056"
             width="260.69586"
             id="rect819-2-4-9" /></flowRegion><flowPara
           style="font-style:normal;font-variant:normal;font-weight:normal;font-stretch:normal;font-size:42.66666794px;font-family:'Black Ops One';-inkscape-font-specification:'Black Ops One, Normal';font-variant-ligatures:normal;font-variant-caps:normal;font-variant-numeric:normal;font-feature-settings:normal;text-align:start;writing-mode:lr-tb;text-anchor:start;stroke-width:0.61265053;stroke:#ffffff;stroke-miterlimit:4;stroke-dasharray:none"
           id="flowPara823-1-8-34">Rated 4.5g</flowPara></flowRoot>      <flowRoot
         transform="matrix(0.21208799,0,0,0.12561986,94.985558,-2.6447454)"
         style="font-style:normal;font-weight:normal;font-size:10.66666698px;line-height:1.25;font-family:sans-serif;letter-spacing:0px;word-spacing:0px;fill:#000000;fill-opacity:1;stroke:#ffffff;stroke-width:0.61265053;stroke-miterlimit:4;stroke-dasharray:none"
         id="flowRoot815-8-6-1-1"
         xml:space="preserve"><flowRegion
           style="stroke-width:0.61265053;stroke:#ffffff;stroke-miterlimit:4;stroke-dasharray:none"
           id="flowRegion817-5-8-8-50"><rect
             style="stroke-width:0.61265053;stroke:#ffffff;stroke-miterlimit:4;stroke-dasharray:none"
             y="292.17429"
             x="119.198"
             height="56.775646"
             width="461.86862"
             id="rect819-2-4-0-8" /></flowRegion><flowPara
           style="font-style:normal;font-variant:normal;font-weight:normal;font-stretch:normal;font-size:42.66666794px;font-family:'Black Ops One';-inkscape-font-specification:'Black Ops One, Normal';font-variant-ligatures:normal;font-variant-caps:normal;font-variant-numeric:normal;font-feature-settings:normal;text-align:start;writing-mode:lr-tb;text-anchor:start;stroke-width:0.61265053;stroke:#ffffff;stroke-miterlimit:4;stroke-dasharray:none"
           id="flowPara823-1-8-1-35">#E49E-0D5A-6C39</flowPara></flowRoot>    </g>
    <g
       id="g1315"
       transform="translate(44.596413,96.428642)"
       style="stroke:#ffffff;stroke-width:0.1;stroke-miterlimit:4;stroke-dasharray:none">
      <flowRoot
         transform="matrix(0.2532939,0,0,0.2532939,88.643672,-25.770226)"
         style="font-style:normal;font-weight:normal;font-size:10.66666698px;line-height:1.25;font-family:sans-serif;letter-spacing:0px;word-spacing:0px;fill:#000000;fill-opacity:1;stroke:#ffffff;stroke-width:0.3947983;stroke-miterlimit:4;stroke-dasharray:none"
         id="flowRoot815-8-7"
         xml:space="preserve"><flowRegion
           style="stroke-width:0.3947983;stroke:#ffffff;stroke-miterlimit:4;stroke-dasharray:none"
           id="flowRegion817-5-6"><rect
             style="stroke-width:0.3947983;stroke:#ffffff;stroke-miterlimit:4;stroke-dasharray:none"
             y="292.17429"
             x="119.198"
             height="48.706032"
             width="151.59227"
             id="rect819-2-3" /></flowRegion><flowPara
           style="font-style:normal;font-variant:normal;font-weight:normal;font-stretch:normal;font-size:42.66666794px;font-family:'Black Ops One';-inkscape-font-specification:'Black Ops One, Normal';font-variant-ligatures:normal;font-variant-caps:normal;font-variant-numeric:normal;font-feature-settings:normal;text-align:start;writing-mode:lr-tb;text-anchor:start;stroke-width:0.3947983;stroke:#ffffff;stroke-miterlimit:4;stroke-dasharray:none"
           id="flowPara823-1-76">6E-05</flowPara></flowRoot>      <flowRoot
         transform="matrix(0.21208799,0,0,0.12561986,138.68524,15.960992)"
         style="font-style:normal;font-weight:normal;font-size:10.66666698px;line-height:1.25;font-family:sans-serif;letter-spacing:0px;word-spacing:0px;fill:#000000;fill-opacity:1;stroke:#ffffff;stroke-width:0.61265053;stroke-miterlimit:4;stroke-dasharray:none"
         id="flowRoot815-8-6-15"
         xml:space="preserve"><flowRegion
           style="stroke-width:0.61265053;stroke:#ffffff;stroke-miterlimit:4;stroke-dasharray:none"
           id="flowRegion817-5-8-0"><rect
             style="stroke-width:0.61265053;stroke:#ffffff;stroke-miterlimit:4;stroke-dasharray:none"
             y="292.17429"
             x="119.198"
             height="54.648056"
             width="260.69586"
             id="rect819-2-4-65" /></flowRegion><flowPara
           style="font-style:normal;font-variant:normal;font-weight:normal;font-stretch:normal;font-size:42.66666794px;font-family:'Black Ops One';-inkscape-font-specification:'Black Ops One, Normal';font-variant-ligatures:normal;font-variant-caps:normal;font-variant-numeric:normal;font-feature-settings:normal;text-align:start;writing-mode:lr-tb;text-anchor:start;stroke-width:0.61265053;stroke:#ffffff;stroke-miterlimit:4;stroke-dasharray:none"
           id="flowPara823-1-8-0">Rated 4.5g</flowPara></flowRoot>      <flowRoot
         transform="matrix(0.21208799,0,0,0.12561986,94.451019,23.814939)"
         style="font-style:normal;font-weight:normal;font-size:10.66666698px;line-height:1.25;font-family:sans-serif;letter-spacing:0px;word-spacing:0px;fill:#000000;fill-opacity:1;stroke:#ffffff;stroke-width:0.61265053;stroke-miterlimit:4;stroke-dasharray:none"
         id="flowRoot815-8-6-1-81"
         xml:space="preserve"><flowRegion
           style="stroke-width:0.61265053;stroke:#ffffff;stroke-miterlimit:4;stroke-dasharray:none"
           id="flowRegion817-5-8-8-22"><rect
             style="stroke-width:0.61265053;stroke:#ffffff;stroke-miterlimit:4;stroke-dasharray:none"
             y="292.17429"
             x="119.198"
             height="54.648041"
             width="450.52698"
             id="rect819-2-4-0-6" /></flowRegion><flowPara
           style="font-style:normal;font-variant:normal;font-weight:normal;font-stretch:normal;font-size:42.66666794px;font-family:'Black Ops One';-inkscape-font-specification:'Black Ops One, Normal';font-variant-ligatures:normal;font-variant-caps:normal;font-variant-numeric:normal;font-feature-settings:normal;text-align:start;writing-mode:lr-tb;text-anchor:start;stroke-width:0.61265053;stroke:#ffffff;stroke-miterlimit:4;stroke-dasharray:none"
           id="flowPara823-1-8-1-91">A339-1190-A8BF</flowPara></flowRoot>    </g>
    <g
       id="g1329"
       transform="translate(45.932762,97.330606)"
       style="stroke:#ffffff;stroke-width:0.1;stroke-miterlimit:4;stroke-dasharray:none">
      <flowRoot
         transform="matrix(0.2532939,0,0,0.2532939,87.307324,-0.37962044)"
         style="font-style:normal;font-weight:normal;font-size:10.66666698px;line-height:1.25;font-family:sans-serif;letter-spacing:0px;word-spacing:0px;fill:#000000;fill-opacity:1;stroke:#ffffff;stroke-width:0.3947983;stroke-miterlimit:4;stroke-dasharray:none"
         id="flowRoot815-8-4"
         xml:space="preserve"><flowRegion
           style="stroke-width:0.3947983;stroke:#ffffff;stroke-miterlimit:4;stroke-dasharray:none"
           id="flowRegion817-5-22"><rect
             style="stroke-width:0.3947983;stroke:#ffffff;stroke-miterlimit:4;stroke-dasharray:none"
             y="292.17429"
             x="119.198"
             height="48.706032"
             width="151.59227"
             id="rect819-2-45" /></flowRegion><flowPara
           style="font-style:normal;font-variant:normal;font-weight:normal;font-stretch:normal;font-size:42.66666794px;font-family:'Black Ops One';-inkscape-font-specification:'Black Ops One, Normal';font-variant-ligatures:normal;font-variant-caps:normal;font-variant-numeric:normal;font-feature-settings:normal;text-align:start;writing-mode:lr-tb;text-anchor:start;stroke-width:0.3947983;stroke:#ffffff;stroke-miterlimit:4;stroke-dasharray:none"
           id="flowPara823-1-17">6E-05</flowPara></flowRoot>      <flowRoot
         transform="matrix(0.21208799,0,0,0.12561986,137.34889,41.351597)"
         style="font-style:normal;font-weight:normal;font-size:10.66666698px;line-height:1.25;font-family:sans-serif;letter-spacing:0px;word-spacing:0px;fill:#000000;fill-opacity:1;stroke:#ffffff;stroke-width:0.61265053;stroke-miterlimit:4;stroke-dasharray:none"
         id="flowRoot815-8-6-57"
         xml:space="preserve"><flowRegion
           style="stroke-width:0.61265053;stroke:#ffffff;stroke-miterlimit:4;stroke-dasharray:none"
           id="flowRegion817-5-8-1"><rect
             style="stroke-width:0.61265053;stroke:#ffffff;stroke-miterlimit:4;stroke-dasharray:none"
             y="292.17429"
             x="119.198"
             height="54.648056"
             width="260.69586"
             id="rect819-2-4-69" /></flowRegion><flowPara
           style="font-style:normal;font-variant:normal;font-weight:normal;font-stretch:normal;font-size:42.66666794px;font-family:'Black Ops One';-inkscape-font-specification:'Black Ops One, Normal';font-variant-ligatures:normal;font-variant-caps:normal;font-variant-numeric:normal;font-feature-settings:normal;text-align:start;writing-mode:lr-tb;text-anchor:start;stroke-width:0.61265053;stroke:#ffffff;stroke-miterlimit:4;stroke-dasharray:none"
           id="flowPara823-1-8-8">Rated 4.5g</flowPara></flowRoot>      <flowRoot
         transform="matrix(0.21208799,0,0,0.12561986,93.114671,49.205544)"
         style="font-style:normal;font-weight:normal;font-size:10.66666698px;line-height:1.25;font-family:sans-serif;letter-spacing:0px;word-spacing:0px;fill:#000000;fill-opacity:1;stroke:#ffffff;stroke-width:0.61265053;stroke-miterlimit:4;stroke-dasharray:none"
         id="flowRoot815-8-6-1-13"
         xml:space="preserve"><flowRegion
           style="stroke-width:0.61265053;stroke:#ffffff;stroke-miterlimit:4;stroke-dasharray:none"
           id="flowRegion817-5-8-8-3"><rect
             style="stroke-width:0.61265053;stroke:#ffffff;stroke-miterlimit:4;stroke-dasharray:none"
             y="292.17429"
             x="119.198"
             height="54.648041"
             width="450.52698"
             id="rect819-2-4-0-3" /></flowRegion><flowPara
           style="font-style:normal;font-variant:normal;font-weight:normal;font-stretch:normal;font-size:42.66666794px;font-family:'Black Ops One';-inkscape-font-specification:'Black Ops One, Normal';font-variant-ligatures:normal;font-variant-caps:normal;font-variant-numeric:normal;font-feature-settings:normal;text-align:start;writing-mode:lr-tb;text-anchor:start;stroke-width:0.61265053;stroke:#ffffff;stroke-miterlimit:4;stroke-dasharray:none"
           id="flowPara823-1-8-1-79">#C8B1-646E-47C0</flowPara></flowRoot>    </g>
    <g
       id="g1343"
       transform="translate(42.725526,99.837491)"
       style="stroke:#ffffff;stroke-width:0.1;stroke-miterlimit:4;stroke-dasharray:none">
      <flowRoot
         transform="matrix(0.2532939,0,0,0.2532939,90.514558,23.407368)"
         style="font-style:normal;font-weight:normal;font-size:10.66666698px;line-height:1.25;font-family:sans-serif;letter-spacing:0px;word-spacing:0px;fill:#000000;fill-opacity:1;stroke:#ffffff;stroke-width:0.3947983;stroke-miterlimit:4;stroke-dasharray:none"
         id="flowRoot815-8-16"
         xml:space="preserve"><flowRegion
           style="stroke-width:0.3947983;stroke:#ffffff;stroke-miterlimit:4;stroke-dasharray:none"
           id="flowRegion817-5-85"><rect
             style="stroke-width:0.3947983;stroke:#ffffff;stroke-miterlimit:4;stroke-dasharray:none"
             y="292.17429"
             x="119.198"
             height="48.706032"
             width="151.59227"
             id="rect819-2-21" /></flowRegion><flowPara
           style="font-style:normal;font-variant:normal;font-weight:normal;font-stretch:normal;font-size:42.66666794px;font-family:'Black Ops One';-inkscape-font-specification:'Black Ops One, Normal';font-variant-ligatures:normal;font-variant-caps:normal;font-variant-numeric:normal;font-feature-settings:normal;text-align:start;writing-mode:lr-tb;text-anchor:start;stroke-width:0.3947983;stroke:#ffffff;stroke-miterlimit:4;stroke-dasharray:none"
           id="flowPara823-1-9">6E-05</flowPara></flowRoot>      <flowRoot
         transform="matrix(0.21208799,0,0,0.12561986,140.55613,65.138586)"
         style="font-style:normal;font-weight:normal;font-size:10.66666698px;line-height:1.25;font-family:sans-serif;letter-spacing:0px;word-spacing:0px;fill:#000000;fill-opacity:1;stroke:#ffffff;stroke-width:0.61265053;stroke-miterlimit:4;stroke-dasharray:none"
         id="flowRoot815-8-6-96"
         xml:space="preserve"><flowRegion
           style="stroke-width:0.61265053;stroke:#ffffff;stroke-miterlimit:4;stroke-dasharray:none"
           id="flowRegion817-5-8-06"><rect
             style="stroke-width:0.61265053;stroke:#ffffff;stroke-miterlimit:4;stroke-dasharray:none"
             y="292.17429"
             x="119.198"
             height="54.648056"
             width="260.69586"
             id="rect819-2-4-49" /></flowRegion><flowPara
           style="font-style:normal;font-variant:normal;font-weight:normal;font-stretch:normal;font-size:42.66666794px;font-family:'Black Ops One';-inkscape-font-specification:'Black Ops One, Normal';font-variant-ligatures:normal;font-variant-caps:normal;font-variant-numeric:normal;font-feature-settings:normal;text-align:start;writing-mode:lr-tb;text-anchor:start;stroke-width:0.61265053;stroke:#ffffff;stroke-miterlimit:4;stroke-dasharray:none"
           id="flowPara823-1-8-9">Rated 4.5g</flowPara></flowRoot>      <flowRoot
         transform="matrix(0.21208799,0,0,0.12561986,96.321905,72.992533)"
         style="font-style:normal;font-weight:normal;font-size:10.66666698px;line-height:1.25;font-family:sans-serif;letter-spacing:0px;word-spacing:0px;fill:#000000;fill-opacity:1;stroke:#ffffff;stroke-width:0.61265053;stroke-miterlimit:4;stroke-dasharray:none"
         id="flowRoot815-8-6-1-0"
         xml:space="preserve"><flowRegion
           style="stroke-width:0.61265053;stroke:#ffffff;stroke-miterlimit:4;stroke-dasharray:none"
           id="flowRegion817-5-8-8-8"><rect
             style="stroke-width:0.61265053;stroke:#ffffff;stroke-miterlimit:4;stroke-dasharray:none"
             y="292.17429"
             x="119.198"
             height="56.775658"
             width="469.42969"
             id="rect819-2-4-0-93" /></flowRegion><flowPara
           style="font-style:normal;font-variant:normal;font-weight:normal;font-stretch:normal;font-size:42.66666794px;font-family:'Black Ops One';-inkscape-font-specification:'Black Ops One, Normal';font-variant-ligatures:normal;font-variant-caps:normal;font-variant-numeric:normal;font-feature-settings:normal;text-align:start;writing-mode:lr-tb;text-anchor:start;stroke-width:0.61265053;stroke:#ffffff;stroke-miterlimit:4;stroke-dasharray:none"
           id="flowPara823-1-8-1-1">#3025-9942-BC2E</flowPara></flowRoot>    </g>
    <g
       id="g1357"
       transform="translate(42.190987,98.868561)"
       style="stroke:#ffffff;stroke-width:0.1;stroke-miterlimit:4;stroke-dasharray:none">
      <flowRoot
         transform="matrix(0.2532939,0,0,0.2532939,91.049097,50.66886)"
         style="font-style:normal;font-weight:normal;font-size:10.66666698px;line-height:1.25;font-family:sans-serif;letter-spacing:0px;word-spacing:0px;fill:#000000;fill-opacity:1;stroke:#ffffff;stroke-width:0.3947983;stroke-miterlimit:4;stroke-dasharray:none"
         id="flowRoot815-8-73"
         xml:space="preserve"><flowRegion
           style="stroke-width:0.3947983;stroke:#ffffff;stroke-miterlimit:4;stroke-dasharray:none"
           id="flowRegion817-5-71"><rect
             style="stroke-width:0.3947983;stroke:#ffffff;stroke-miterlimit:4;stroke-dasharray:none"
             y="292.17429"
             x="119.198"
             height="48.706032"
             width="151.59227"
             id="rect819-2-22" /></flowRegion><flowPara
           style="font-style:normal;font-variant:normal;font-weight:normal;font-stretch:normal;font-size:42.66666794px;font-family:'Black Ops One';-inkscape-font-specification:'Black Ops One, Normal';font-variant-ligatures:normal;font-variant-caps:normal;font-variant-numeric:normal;font-feature-settings:normal;text-align:start;writing-mode:lr-tb;text-anchor:start;stroke-width:0.3947983;stroke:#ffffff;stroke-miterlimit:4;stroke-dasharray:none"
           id="flowPara823-1-15">6E-05</flowPara></flowRoot>      <flowRoot
         transform="matrix(0.21208799,0,0,0.12561986,141.09066,92.400078)"
         style="font-style:normal;font-weight:normal;font-size:10.66666698px;line-height:1.25;font-family:sans-serif;letter-spacing:0px;word-spacing:0px;fill:#000000;fill-opacity:1;stroke:#ffffff;stroke-width:0.61265053;stroke-miterlimit:4;stroke-dasharray:none"
         id="flowRoot815-8-6-09"
         xml:space="preserve"><flowRegion
           style="stroke-width:0.61265053;stroke:#ffffff;stroke-miterlimit:4;stroke-dasharray:none"
           id="flowRegion817-5-8-04"><rect
             style="stroke-width:0.61265053;stroke:#ffffff;stroke-miterlimit:4;stroke-dasharray:none"
             y="292.17429"
             x="119.198"
             height="54.648056"
             width="260.69586"
             id="rect819-2-4-01" /></flowRegion><flowPara
           style="font-style:normal;font-variant:normal;font-weight:normal;font-stretch:normal;font-size:42.66666794px;font-family:'Black Ops One';-inkscape-font-specification:'Black Ops One, Normal';font-variant-ligatures:normal;font-variant-caps:normal;font-variant-numeric:normal;font-feature-settings:normal;text-align:start;writing-mode:lr-tb;text-anchor:start;stroke-width:0.61265053;stroke:#ffffff;stroke-miterlimit:4;stroke-dasharray:none"
           id="flowPara823-1-8-37">Rated 4.5g</flowPara></flowRoot>      <flowRoot
         transform="matrix(0.21208799,0,0,0.12561986,96.856444,100.25402)"
         style="font-style:normal;font-weight:normal;font-size:10.66666698px;line-height:1.25;font-family:sans-serif;letter-spacing:0px;word-spacing:0px;fill:#000000;fill-opacity:1;stroke:#ffffff;stroke-width:0.61265053;stroke-miterlimit:4;stroke-dasharray:none"
         id="flowRoot815-8-6-1-41"
         xml:space="preserve"><flowRegion
           style="stroke-width:0.61265053;stroke:#ffffff;stroke-miterlimit:4;stroke-dasharray:none"
           id="flowRegion817-5-8-8-13"><rect
             style="stroke-width:0.61265053;stroke:#ffffff;stroke-miterlimit:4;stroke-dasharray:none"
             y="292.17429"
             x="119.198"
             height="54.648041"
             width="450.52698"
             id="rect819-2-4-0-0" /></flowRegion><flowPara
           style="font-style:normal;font-variant:normal;font-weight:normal;font-stretch:normal;font-size:42.66666794px;font-family:'Black Ops One';-inkscape-font-specification:'Black Ops One, Normal';font-variant-ligatures:normal;font-variant-caps:normal;font-variant-numeric:normal;font-feature-settings:normal;text-align:start;writing-mode:lr-tb;text-anchor:start;stroke-width:0.61265053;stroke:#ffffff;stroke-miterlimit:4;stroke-dasharray:none"
           id="flowPara823-1-8-1-32">#7CD7-7B31-CBCB</flowPara></flowRoot>    </g>
    <g
       id="g1371"
       transform="translate(45.932762,105.65045)"
       style="stroke:#ffffff;stroke-width:0.1;stroke-miterlimit:4;stroke-dasharray:none">
      <flowRoot
         transform="matrix(0.2532939,0,0,0.2532939,87.307324,70.179535)"
         style="font-style:normal;font-weight:normal;font-size:10.66666698px;line-height:1.25;font-family:sans-serif;letter-spacing:0px;word-spacing:0px;fill:#000000;fill-opacity:1;stroke:#ffffff;stroke-width:0.3947983;stroke-miterlimit:4;stroke-dasharray:none"
         id="flowRoot815-8-42"
         xml:space="preserve"><flowRegion
           style="stroke-width:0.3947983;stroke:#ffffff;stroke-miterlimit:4;stroke-dasharray:none"
           id="flowRegion817-5-21"><rect
             style="stroke-width:0.3947983;stroke:#ffffff;stroke-miterlimit:4;stroke-dasharray:none"
             y="292.17429"
             x="119.198"
             height="48.706032"
             width="151.59227"
             id="rect819-2-7" /></flowRegion><flowPara
           style="font-style:normal;font-variant:normal;font-weight:normal;font-stretch:normal;font-size:42.66666794px;font-family:'Black Ops One';-inkscape-font-specification:'Black Ops One, Normal';font-variant-ligatures:normal;font-variant-caps:normal;font-variant-numeric:normal;font-feature-settings:normal;text-align:start;writing-mode:lr-tb;text-anchor:start;stroke-width:0.3947983;stroke:#ffffff;stroke-miterlimit:4;stroke-dasharray:none"
           id="flowPara823-1-24">6E-05</flowPara></flowRoot>      <flowRoot
         transform="matrix(0.21208799,0,0,0.12561986,137.34889,111.91075)"
         style="font-style:normal;font-weight:normal;font-size:10.66666698px;line-height:1.25;font-family:sans-serif;letter-spacing:0px;word-spacing:0px;fill:#000000;fill-opacity:1;stroke:#ffffff;stroke-width:0.61265053;stroke-miterlimit:4;stroke-dasharray:none"
         id="flowRoot815-8-6-16"
         xml:space="preserve"><flowRegion
           style="stroke-width:0.61265053;stroke:#ffffff;stroke-miterlimit:4;stroke-dasharray:none"
           id="flowRegion817-5-8-57"><rect
             style="stroke-width:0.61265053;stroke:#ffffff;stroke-miterlimit:4;stroke-dasharray:none"
             y="292.17429"
             x="119.198"
             height="54.648056"
             width="260.69586"
             id="rect819-2-4-8" /></flowRegion><flowPara
           style="font-style:normal;font-variant:normal;font-weight:normal;font-stretch:normal;font-size:42.66666794px;font-family:'Black Ops One';-inkscape-font-specification:'Black Ops One, Normal';font-variant-ligatures:normal;font-variant-caps:normal;font-variant-numeric:normal;font-feature-settings:normal;text-align:start;writing-mode:lr-tb;text-anchor:start;stroke-width:0.61265053;stroke:#ffffff;stroke-miterlimit:4;stroke-dasharray:none"
           id="flowPara823-1-8-5">Rated 4.5g</flowPara></flowRoot>      <flowRoot
         transform="matrix(0.21208799,0,0,0.12561986,93.114671,119.7647)"
         style="font-style:normal;font-weight:normal;font-size:10.66666698px;line-height:1.25;font-family:sans-serif;letter-spacing:0px;word-spacing:0px;fill:#000000;fill-opacity:1;stroke:#ffffff;stroke-width:0.61265053;stroke-miterlimit:4;stroke-dasharray:none"
         id="flowRoot815-8-6-1-9"
         xml:space="preserve"><flowRegion
           style="stroke-width:0.61265053;stroke:#ffffff;stroke-miterlimit:4;stroke-dasharray:none"
           id="flowRegion817-5-8-8-27"><rect
             style="stroke-width:0.61265053;stroke:#ffffff;stroke-miterlimit:4;stroke-dasharray:none"
             y="292.17429"
             x="119.198"
             height="54.648041"
             width="463.12881"
             id="rect819-2-4-0-36" /></flowRegion><flowPara
           style="font-style:normal;font-variant:normal;font-weight:normal;font-stretch:normal;font-size:42.66666794px;font-family:'Black Ops One';-inkscape-font-specification:'Black Ops One, Normal';font-variant-ligatures:normal;font-variant-caps:normal;font-variant-numeric:normal;font-feature-settings:normal;text-align:start;writing-mode:lr-tb;text-anchor:start;stroke-width:0.61265053;stroke:#ffffff;stroke-miterlimit:4;stroke-dasharray:none"
           id="flowPara823-1-8-1-4">#BA3B-FF0C-ACC6</flowPara></flowRoot>    </g>
  </g>
</svg>
